[2016-05-11 12:04:08] 140.113.69.111  HTTP/1.1  POST  /Notification/mobile_notificationServer.php    Dalvik/1.6.0 (Linux; U; Android 4.3; LT29i Build/9.2.A.1.205)
[2016-05-11 12:04:08] 
Array
(
    [op] => getnot
    [id] => 315
    [data] => 
)

[2016-05-11 12:04:08] 
Array
(
    [Android] => Array
        (
            [0] => Array
                (
                    [id] => 34
                    [context] => 123
                    [month] => 4
                    [day] => 5
                )

            [1] => Array
                (
                    [id] => 35
                    [context] => 123
                    [month] => 4
                    [day] => 5
                )

        )

)

[2016-05-11 12:04:09] 140.113.69.111  HTTP/1.1  POST  /Notification/mobile_notificationServer.php    Dalvik/1.6.0 (Linux; U; Android 4.3; LT29i Build/9.2.A.1.205)
[2016-05-11 12:04:09] 
Array
(
    [op] => getnot
    [id] => 315
    [data] => 
)

[2016-05-11 12:04:09] 
Array
(
    [Android] => Array
        (
            [0] => Array
                (
                    [id] => 34
                    [context] => 123
                    [month] => 4
                    [day] => 5
                )

            [1] => Array
                (
                    [id] => 35
                    [context] => 123
                    [month] => 4
                    [day] => 5
                )

        )

)

[2016-05-11 12:05:06] 140.113.69.111  HTTP/1.1  POST  /Notification/mobile_notificationServer.php    Dalvik/1.6.0 (Linux; U; Android 4.3; LT29i Build/9.2.A.1.205)
[2016-05-11 12:05:06] 
Array
(
    [op] => getnot
    [id] => 315
    [data] => 
)

[2016-05-11 12:05:06] 
Array
(
    [Android] => Array
        (
            [0] => Array
                (
                    [id] => 34
                    [context] => 123
                    [month] => 4
                    [day] => 5
                )

        )

)

[2016-05-11 16:22:12] 140.113.69.111  HTTP/1.1  POST  /Notification/mobile_notificationServer.php    Dalvik/1.6.0 (Linux; U; Android 4.3; LT29i Build/9.2.A.1.205)
[2016-05-11 16:22:12] 
Array
(
    [op] => getnot
    [id] => 315
    [data] => 
)

[2016-05-11 16:22:12] 
Array
(
    [Android] => 
)

[2016-05-11 16:22:17] 140.113.69.111  HTTP/1.1  POST  /Notification/mobile_notificationServer.php    Dalvik/1.6.0 (Linux; U; Android 4.3; LT29i Build/9.2.A.1.205)
[2016-05-11 16:22:17] 
Array
(
    [op] => getnot
    [id] => 315
    [data] => 
)

[2016-05-11 16:22:17] 
Array
(
    [Android] => 
)

[2016-05-11 16:24:29] 140.113.69.111  HTTP/1.1  POST  /Notification/mobile_notificationServer.php    Dalvik/1.6.0 (Linux; U; Android 4.3; LT29i Build/9.2.A.1.205)
[2016-05-11 16:24:29] 
Array
(
    [op] => getnot
    [id] => 318
    [data] => 
)

[2016-05-11 16:24:29] 
Array
(
    [Android] => 
)

[2016-05-11 16:25:46] 140.113.69.111  HTTP/1.1  POST  /Notification/mobile_notificationServer.php    Dalvik/1.6.0 (Linux; U; Android 4.3; LT29i Build/9.2.A.1.205)
[2016-05-11 16:25:46] 
Array
(
    [op] => getnot
    [id] => 318
    [data] => 
)

[2016-05-11 16:25:46] 
Array
(
    [Android] => Array
        (
        )

)

[2016-05-11 16:39:34] 140.113.69.111  HTTP/1.1  POST  /Notification/mobile_notificationServer.php    Dalvik/1.6.0 (Linux; U; Android 4.3; LT29i Build/9.2.A.1.205)
[2016-05-11 16:39:34] 
Array
(
    [op] => getnot
    [id] => 318
    [data] => 
)

[2016-05-11 16:39:34] 
Array
(
    [Android] => Array
        (
        )

)

[2016-05-11 16:39:35] 140.113.69.111  HTTP/1.1  POST  /Notification/mobile_notificationServer.php    Dalvik/1.6.0 (Linux; U; Android 4.3; LT29i Build/9.2.A.1.205)
[2016-05-11 16:39:35] 
Array
(
    [op] => getnot
    [id] => 318
    [data] => 
)

[2016-05-11 16:39:35] 
Array
(
    [Android] => Array
        (
        )

)

[2016-05-11 16:49:04] 140.113.69.111  HTTP/1.1  POST  /Notification/mobile_notificationServer.php    Dalvik/1.6.0 (Linux; U; Android 4.3; LT29i Build/9.2.A.1.205)
[2016-05-11 16:49:04] 
Array
(
    [op] => getnot
    [id] => 318
    [data] => 
)

[2016-05-11 16:49:04] 
Array
(
    [Android] => Array
        (
        )

)

[2016-05-11 16:56:12] 140.113.69.111  HTTP/1.1  POST  /Notification/mobile_notificationServer.php    Dalvik/1.6.0 (Linux; U; Android 4.3; LT29i Build/9.2.A.1.205)
[2016-05-11 16:56:12] 
Array
(
    [op] => getnot
    [id] => 318
    [data] => 
)

[2016-05-11 16:56:12] 
Array
(
    [Android] => Array
        (
            [0] => Array
                (
                    [id] => 36
                    [context] => 
                    [month] => 4
                    [day] => 5
                )

            [1] => Array
                (
                    [id] => 37
                    [context] => 
                    [month] => 4
                    [day] => 5
                )

        )

)

[2016-05-11 17:13:54] 140.113.69.111  HTTP/1.1  POST  /Notification/mobile_notificationServer.php    Dalvik/1.6.0 (Linux; U; Android 4.3; LT29i Build/9.2.A.1.205)
[2016-05-11 17:13:54] 
Array
(
    [op] => getnot
    [id] => 318
    [data] => 
)

[2016-05-11 17:13:54] 
Array
(
    [Android] => Array
        (
            [0] => Array
                (
                    [id] => 36
                    [context] => 
                    [month] => 4
                    [day] => 5
                )

        )

)

[2016-05-11 17:20:01] 140.113.69.111  HTTP/1.1  POST  /Notification/mobile_notificationServer.php    Dalvik/1.6.0 (Linux; U; Android 4.3; LT29i Build/9.2.A.1.205)
[2016-05-11 17:20:01] 
Array
(
    [op] => getnot
    [id] => 318
    [data] => 
)

[2016-05-11 17:20:01] 
Array
(
    [Android] => Array
        (
            [0] => Array
                (
                    [id] => 36
                    [context] => 
                    [month] => 4
                    [day] => 5
                )

        )

)

[2016-05-11 17:25:53] 140.113.69.111  HTTP/1.1  POST  /Notification/mobile_notificationServer.php    Dalvik/1.6.0 (Linux; U; Android 4.3; LT29i Build/9.2.A.1.205)
[2016-05-11 17:25:53] 
Array
(
    [op] => getnot
    [id] => 318
    [data] => 
)

[2016-05-11 17:25:53] 
Array
(
    [Android] => Array
        (
            [0] => Array
                (
                    [id] => 36
                    [context] => 
                    [month] => 4
                    [day] => 5
                )

        )

)

[2016-05-11 19:53:45] 140.113.69.111  HTTP/1.1  POST  /Notification/mobile_notificationServer.php    Dalvik/1.6.0 (Linux; U; Android 4.3; LT29i Build/9.2.A.1.205)
[2016-05-11 19:53:45] 
Array
(
    [op] => getnot
    [id] => 318
    [data] => 
)

[2016-05-11 19:53:45] 
Array
(
    [Android] => Array
        (
            [0] => Array
                (
                    [id] => 36
                    [context] => 
                    [month] => 4
                    [day] => 5
                )

        )

)

[2016-05-11 19:54:12] 140.113.69.111  HTTP/1.1  POST  /Notification/mobile_notificationServer.php    Dalvik/1.6.0 (Linux; U; Android 4.3; LT29i Build/9.2.A.1.205)
[2016-05-11 19:54:12] 
Array
(
    [op] => getnot
    [id] => 318
    [data] => 
)

[2016-05-11 19:54:12] 
Array
(
    [Android] => Array
        (
            [0] => Array
                (
                    [id] => 36
                    [context] => 
                    [month] => 4
                    [day] => 5
                )

        )

)

[2016-05-11 19:56:57] 140.113.69.111  HTTP/1.1  POST  /Notification/mobile_notificationServer.php    Dalvik/1.6.0 (Linux; U; Android 4.3; LT29i Build/9.2.A.1.205)
[2016-05-11 19:56:57] 
Array
(
    [op] => getnot
    [id] => 318
    [data] => 
)

[2016-05-11 19:56:57] 
Array
(
    [Android] => Array
        (
            [0] => Array
                (
                    [id] => 36
                    [context] => 
                    [month] => 4
                    [day] => 5
                )

        )

)

[2016-05-11 19:57:30] 140.113.69.111  HTTP/1.1  POST  /Notification/mobile_notificationServer.php    Dalvik/1.6.0 (Linux; U; Android 4.3; LT29i Build/9.2.A.1.205)
[2016-05-11 19:57:30] 
Array
(
    [op] => getnot
    [id] => 318
    [data] => 
)

[2016-05-11 19:57:30] 
Array
(
    [Android] => Array
        (
            [0] => Array
                (
                    [id] => 36
                    [context] => 
                    [month] => 4
                    [day] => 5
                )

        )

)

[2016-05-11 20:00:09] 140.113.69.111  HTTP/1.1  POST  /Notification/mobile_notificationServer.php    Dalvik/1.6.0 (Linux; U; Android 4.3; LT29i Build/9.2.A.1.205)
[2016-05-11 20:00:09] 
Array
(
    [op] => getnot
    [id] => 318
    [data] => 
)

[2016-05-11 20:00:09] 
Array
(
    [Android] => Array
        (
            [0] => Array
                (
                    [id] => 36
                    [context] => 
                    [month] => 4
                    [day] => 5
                )

        )

)

[2016-05-11 20:01:01] 140.113.69.111  HTTP/1.1  POST  /Notification/mobile_notificationServer.php    Dalvik/1.6.0 (Linux; U; Android 4.3; LT29i Build/9.2.A.1.205)
[2016-05-11 20:01:01] 
Array
(
    [op] => getnot
    [id] => 318
    [data] => 
)

[2016-05-11 20:01:01] 
Array
(
    [Android] => Array
        (
            [0] => Array
                (
                    [id] => 36
                    [context] => 
                    [month] => 4
                    [day] => 5
                )

        )

)

[2016-05-11 20:06:52] 140.113.69.111  HTTP/1.1  POST  /Notification/mobile_notificationServer.php    Dalvik/1.6.0 (Linux; U; Android 4.3; LT29i Build/9.2.A.1.205)
[2016-05-11 20:06:52] 
Array
(
    [op] => getnot
    [id] => 318
    [data] => 
)

[2016-05-11 20:06:52] 
Array
(
    [Android] => Array
        (
            [0] => Array
                (
                    [id] => 36
                    [context] => 
                    [month] => 4
                    [day] => 5
                )

        )

)

[2016-05-11 20:07:42] 140.113.69.111  HTTP/1.1  POST  /Notification/mobile_notificationServer.php    Dalvik/1.6.0 (Linux; U; Android 4.3; LT29i Build/9.2.A.1.205)
[2016-05-11 20:07:42] 
Array
(
    [op] => getnot
    [id] => 318
    [data] => 
)

[2016-05-11 20:07:42] 
Array
(
    [Android] => Array
        (
            [0] => Array
                (
                    [id] => 36
                    [context] => 
                    [month] => 4
                    [day] => 5
                )

        )

)

[2016-05-11 20:08:24] 140.113.69.111  HTTP/1.1  POST  /Notification/mobile_notificationServer.php    Dalvik/1.6.0 (Linux; U; Android 4.3; LT29i Build/9.2.A.1.205)
[2016-05-11 20:08:24] 
Array
(
    [op] => getnot
    [id] => 318
    [data] => 
)

[2016-05-11 20:08:24] 
Array
(
    [Android] => Array
        (
            [0] => Array
                (
                    [id] => 36
                    [context] => 
                    [month] => 4
                    [day] => 5
                )

        )

)

[2016-05-11 20:09:07] 140.113.69.111  HTTP/1.1  POST  /Notification/mobile_notificationServer.php    Dalvik/1.6.0 (Linux; U; Android 4.3; LT29i Build/9.2.A.1.205)
[2016-05-11 20:09:07] 
Array
(
    [op] => getnot
    [id] => 318
    [data] => 
)

[2016-05-11 20:09:07] 
Array
(
    [Android] => Array
        (
            [0] => Array
                (
                    [id] => 36
                    [context] => 
                    [month] => 4
                    [day] => 5
                )

        )

)

[2016-05-11 20:10:46] 140.113.69.111  HTTP/1.1  POST  /Notification/mobile_notificationServer.php    Dalvik/1.6.0 (Linux; U; Android 4.3; LT29i Build/9.2.A.1.205)
[2016-05-11 20:10:46] 
Array
(
    [op] => getnot
    [id] => 318
    [data] => 
)

[2016-05-11 20:10:46] 
Array
(
    [Android] => Array
        (
            [0] => Array
                (
                    [id] => 36
                    [context] => 
                    [month] => 4
                    [day] => 5
                )

        )

)

[2016-05-11 20:12:34] 140.113.69.111  HTTP/1.1  POST  /Notification/mobile_notificationServer.php    Dalvik/1.6.0 (Linux; U; Android 4.3; LT29i Build/9.2.A.1.205)
[2016-05-11 20:12:34] 
Array
(
    [op] => getnot
    [id] => 318
    [data] => 
)

[2016-05-11 20:12:34] 
Array
(
    [Android] => Array
        (
            [0] => Array
                (
                    [id] => 36
                    [context] => 
                    [month] => 4
                    [day] => 5
                )

        )

)

[2016-05-11 20:20:26] 140.113.69.111  HTTP/1.1  POST  /Notification/mobile_notificationServer.php    Dalvik/1.6.0 (Linux; U; Android 4.3; LT29i Build/9.2.A.1.205)
[2016-05-11 20:20:26] 
Array
(
    [op] => getnot
    [id] => 318
    [data] => 
)

[2016-05-11 20:20:26] 
Array
(
    [Android] => Array
        (
            [0] => Array
                (
                    [id] => 36
                    [context] => 
                    [month] => 4
                    [day] => 5
                )

        )

)

[2016-05-11 20:20:51] 140.113.69.111  HTTP/1.1  POST  /Notification/mobile_notificationServer.php    Dalvik/1.6.0 (Linux; U; Android 4.3; LT29i Build/9.2.A.1.205)
[2016-05-11 20:20:51] 
Array
(
    [op] => getnot
    [id] => 318
    [data] => 
)

[2016-05-11 20:20:51] 
Array
(
    [Android] => Array
        (
            [0] => Array
                (
                    [id] => 36
                    [context] => 
                    [month] => 4
                    [day] => 5
                )

        )

)

[2016-05-11 20:21:45] 140.113.69.111  HTTP/1.1  POST  /Notification/mobile_notificationServer.php    Dalvik/1.6.0 (Linux; U; Android 4.3; LT29i Build/9.2.A.1.205)
[2016-05-11 20:21:45] 
Array
(
    [op] => getnot
    [id] => 318
    [data] => 
)

[2016-05-11 20:21:45] 
Array
(
    [Android] => Array
        (
            [0] => Array
                (
                    [id] => 36
                    [context] => 
                    [month] => 4
                    [day] => 5
                )

        )

)

[2016-05-11 20:21:55] 140.113.69.111  HTTP/1.1  POST  /Notification/mobile_notificationServer.php    Dalvik/1.6.0 (Linux; U; Android 4.3; LT29i Build/9.2.A.1.205)
[2016-05-11 20:21:55] 
Array
(
    [op] => getnot
    [id] => 318
    [data] => 
)

[2016-05-11 20:21:55] 
Array
(
    [Android] => Array
        (
            [0] => Array
                (
                    [id] => 36
                    [context] => 
                    [month] => 4
                    [day] => 5
                )

        )

)

[2016-05-11 20:25:13] 140.113.69.111  HTTP/1.1  POST  /Notification/mobile_notificationServer.php    Dalvik/1.6.0 (Linux; U; Android 4.3; LT29i Build/9.2.A.1.205)
[2016-05-11 20:25:13] 
Array
(
    [op] => getnot
    [id] => 318
    [data] => 
)

[2016-05-11 20:25:13] 
Array
(
    [Android] => Array
        (
            [0] => Array
                (
                    [id] => 36
                    [context] => 
                    [month] => 4
                    [day] => 5
                )

        )

)

[2016-05-11 20:26:36] 140.113.69.111  HTTP/1.1  POST  /Notification/mobile_notificationServer.php    Dalvik/1.6.0 (Linux; U; Android 4.3; LT29i Build/9.2.A.1.205)
[2016-05-11 20:26:36] 
Array
(
    [op] => getnot
    [id] => 318
    [data] => 
)

[2016-05-11 20:26:36] 
Array
(
    [Android] => Array
        (
            [0] => Array
                (
                    [id] => 36
                    [context] => 
                    [month] => 4
                    [day] => 5
                )

        )

)

[2016-05-11 20:31:48] 140.113.69.111  HTTP/1.1  POST  /Notification/mobile_notificationServer.php    Dalvik/1.6.0 (Linux; U; Android 4.3; LT29i Build/9.2.A.1.205)
[2016-05-11 20:31:48] 
Array
(
    [op] => getnot
    [id] => 318
    [data] => 
)

[2016-05-11 20:31:48] 
Array
(
    [Android] => Array
        (
            [0] => Array
                (
                    [id] => 36
                    [context] => 
                    [month] => 4
                    [day] => 5
                )

        )

)

[2016-05-11 20:33:17] 140.113.69.111  HTTP/1.1  POST  /Notification/mobile_notificationServer.php    Dalvik/1.6.0 (Linux; U; Android 4.3; LT29i Build/9.2.A.1.205)
[2016-05-11 20:33:17] 
Array
(
    [op] => getnot
    [id] => 318
    [data] => 
)

[2016-05-11 20:33:17] 
Array
(
    [Android] => Array
        (
            [0] => Array
                (
                    [id] => 36
                    [context] => 
                    [month] => 4
                    [day] => 5
                )

        )

)

[2016-05-11 20:35:13] 140.113.69.111  HTTP/1.1  POST  /Notification/mobile_notificationServer.php    Dalvik/1.6.0 (Linux; U; Android 4.3; LT29i Build/9.2.A.1.205)
[2016-05-11 20:35:13] 
Array
(
    [op] => getnot
    [id] => 318
    [data] => 
)

[2016-05-11 20:35:13] 
Array
(
    [Android] => Array
        (
            [0] => Array
                (
                    [id] => 36
                    [context] => 
                    [month] => 4
                    [day] => 5
                )

        )

)

[2016-05-11 20:35:38] 140.113.69.111  HTTP/1.1  POST  /Notification/mobile_notificationServer.php    Dalvik/1.6.0 (Linux; U; Android 4.3; LT29i Build/9.2.A.1.205)
[2016-05-11 20:35:38] 
Array
(
    [op] => getnot
    [id] => 318
    [data] => 
)

[2016-05-11 20:35:38] 
Array
(
    [Android] => Array
        (
            [0] => Array
                (
                    [id] => 36
                    [context] => 
                    [month] => 4
                    [day] => 5
                )

        )

)

[2016-05-11 20:36:55] 140.113.69.111  HTTP/1.1  POST  /Notification/mobile_notificationServer.php    Dalvik/1.6.0 (Linux; U; Android 4.3; LT29i Build/9.2.A.1.205)
[2016-05-11 20:36:55] 
Array
(
    [op] => getnot
    [id] => 318
    [data] => 
)

[2016-05-11 20:36:55] 
Array
(
    [Android] => Array
        (
            [0] => Array
                (
                    [id] => 36
                    [context] => 
                    [month] => 4
                    [day] => 5
                )

        )

)

[2016-05-11 20:38:52] 140.113.69.111  HTTP/1.1  POST  /Notification/mobile_notificationServer.php    Dalvik/1.6.0 (Linux; U; Android 4.3; LT29i Build/9.2.A.1.205)
[2016-05-11 20:38:52] 
Array
(
    [op] => getnot
    [id] => 318
    [data] => 
)

[2016-05-11 20:38:52] 
Array
(
    [Android] => Array
        (
            [0] => Array
                (
                    [id] => 36
                    [context] => 
                    [month] => 4
                    [day] => 5
                )

        )

)

[2016-05-11 20:38:55] 140.113.69.111  HTTP/1.1  POST  /Notification/mobile_notificationServer.php    Dalvik/1.6.0 (Linux; U; Android 4.3; LT29i Build/9.2.A.1.205)
[2016-05-11 20:38:55] 
Array
(
    [op] => getnot
    [id] => 318
    [data] => 
)

[2016-05-11 20:38:55] 
Array
(
    [Android] => Array
        (
            [0] => Array
                (
                    [id] => 36
                    [context] => 
                    [month] => 4
                    [day] => 5
                )

        )

)

[2016-05-11 20:39:44] 140.113.69.111  HTTP/1.1  POST  /Notification/mobile_notificationServer.php    Dalvik/1.6.0 (Linux; U; Android 4.3; LT29i Build/9.2.A.1.205)
[2016-05-11 20:39:44] 
Array
(
    [op] => getnot
    [id] => 318
    [data] => 
)

[2016-05-11 20:39:44] 
Array
(
    [Android] => Array
        (
            [0] => Array
                (
                    [id] => 36
                    [context] => 
                    [month] => 4
                    [day] => 5
                )

        )

)

[2016-05-11 20:40:45] 140.113.69.111  HTTP/1.1  POST  /Notification/mobile_notificationServer.php    Dalvik/1.6.0 (Linux; U; Android 4.3; LT29i Build/9.2.A.1.205)
[2016-05-11 20:40:45] 
Array
(
    [op] => getnot
    [id] => 318
    [data] => 
)

[2016-05-11 20:40:45] 
Array
(
    [Android] => Array
        (
            [0] => Array
                (
                    [id] => 36
                    [context] => 
                    [month] => 4
                    [day] => 5
                )

        )

)

[2016-05-11 20:40:54] 140.113.69.111  HTTP/1.1  POST  /Notification/mobile_notificationServer.php    Dalvik/1.6.0 (Linux; U; Android 4.3; LT29i Build/9.2.A.1.205)
[2016-05-11 20:40:54] 
Array
(
    [op] => getnot
    [id] => 318
    [data] => 
)

[2016-05-11 20:40:54] 
Array
(
    [Android] => Array
        (
            [0] => Array
                (
                    [id] => 36
                    [context] => 
                    [month] => 4
                    [day] => 5
                )

        )

)

[2016-05-11 20:41:28] 140.113.69.111  HTTP/1.1  POST  /Notification/mobile_notificationServer.php    Dalvik/1.6.0 (Linux; U; Android 4.3; LT29i Build/9.2.A.1.205)
[2016-05-11 20:41:28] 
Array
(
    [op] => getnot
    [id] => 318
    [data] => 
)

[2016-05-11 20:41:28] 
Array
(
    [Android] => Array
        (
            [0] => Array
                (
                    [id] => 36
                    [context] => 
                    [month] => 4
                    [day] => 5
                )

        )

)

[2016-05-11 20:41:49] 140.113.69.111  HTTP/1.1  POST  /Notification/mobile_notificationServer.php    Dalvik/1.6.0 (Linux; U; Android 4.3; LT29i Build/9.2.A.1.205)
[2016-05-11 20:41:49] 
Array
(
    [op] => getnot
    [id] => 318
    [data] => 
)

[2016-05-11 20:41:49] 
Array
(
    [Android] => Array
        (
            [0] => Array
                (
                    [id] => 36
                    [context] => 
                    [month] => 4
                    [day] => 5
                )

        )

)

[2016-05-11 20:42:42] 140.113.69.111  HTTP/1.1  POST  /Notification/mobile_notificationServer.php    Dalvik/1.6.0 (Linux; U; Android 4.3; LT29i Build/9.2.A.1.205)
[2016-05-11 20:42:42] 
Array
(
    [op] => getnot
    [id] => 318
    [data] => 
)

[2016-05-11 20:42:42] 
Array
(
    [Android] => Array
        (
            [0] => Array
                (
                    [id] => 36
                    [context] => 
                    [month] => 4
                    [day] => 5
                )

        )

)

[2016-05-11 20:44:46] 140.113.69.111  HTTP/1.1  POST  /Notification/mobile_notificationServer.php    Dalvik/1.6.0 (Linux; U; Android 4.3; LT29i Build/9.2.A.1.205)
[2016-05-11 20:44:46] 
Array
(
    [op] => getnot
    [id] => 318
    [data] => 
)

[2016-05-11 20:44:46] 
Array
(
    [Android] => Array
        (
            [0] => Array
                (
                    [id] => 36
                    [context] => 
                    [month] => 4
                    [day] => 5
                )

        )

)

[2016-05-11 20:55:20] 140.113.69.111  HTTP/1.1  POST  /Notification/mobile_notificationServer.php    Dalvik/1.6.0 (Linux; U; Android 4.3; LT29i Build/9.2.A.1.205)
[2016-05-11 20:55:20] 
Array
(
    [op] => getnot
    [id] => 319
    [data] => 
)

[2016-05-11 20:55:20] 
Array
(
    [Android] => Array
        (
            [0] => Array
                (
                    [id] => 36
                    [context] => 
                    [month] => 4
                    [day] => 5
                )

        )

)

[2016-05-11 21:02:01] 140.113.69.111  HTTP/1.1  POST  /Notification/mobile_notificationServer.php    Dalvik/1.6.0 (Linux; U; Android 4.3; LT29i Build/9.2.A.1.205)
[2016-05-11 21:02:01] 
Array
(
    [op] => getnot
    [id] => 319
    [data] => 
)

[2016-05-11 21:02:01] 
Array
(
    [Android] => Array
        (
            [0] => Array
                (
                    [id] => 36
                    [context] => 
                    [month] => 4
                    [day] => 5
                )

        )

)

[2016-05-11 21:04:18] 140.113.69.111  HTTP/1.1  POST  /Notification/mobile_notificationServer.php    Dalvik/1.6.0 (Linux; U; Android 4.3; LT29i Build/9.2.A.1.205)
[2016-05-11 21:04:18] 
Array
(
    [op] => getnot
    [id] => 319
    [data] => 
)

[2016-05-11 21:04:18] 
Array
(
    [Android] => Array
        (
            [0] => Array
                (
                    [id] => 36
                    [context] => 
                    [month] => 4
                    [day] => 5
                )

        )

)

[2016-05-11 21:09:29] 140.113.69.111  HTTP/1.1  POST  /Notification/mobile_notificationServer.php    Dalvik/1.6.0 (Linux; U; Android 4.3; LT29i Build/9.2.A.1.205)
[2016-05-11 21:09:29] 
Array
(
    [op] => getnot
    [id] => 319
    [data] => 
)

[2016-05-11 21:09:29] 
Array
(
    [Android] => Array
        (
            [0] => Array
                (
                    [id] => 36
                    [context] => 
                    [month] => 4
                    [day] => 5
                )

        )

)

[2016-05-11 21:10:49] 140.113.69.111  HTTP/1.1  POST  /Notification/mobile_notificationServer.php    Dalvik/1.6.0 (Linux; U; Android 4.3; LT29i Build/9.2.A.1.205)
[2016-05-11 21:10:49] 
Array
(
    [op] => getnot
    [id] => 319
    [data] => 
)

[2016-05-11 21:10:49] 
Array
(
    [Android] => Array
        (
            [0] => Array
                (
                    [id] => 36
                    [context] => 
                    [month] => 4
                    [day] => 5
                )

        )

)

[2016-05-11 21:10:54] 140.113.69.111  HTTP/1.1  POST  /Notification/mobile_notificationServer.php    Dalvik/1.6.0 (Linux; U; Android 4.3; LT29i Build/9.2.A.1.205)
[2016-05-11 21:10:54] 
Array
(
    [op] => getnot
    [id] => 319
    [data] => 
)

[2016-05-11 21:10:54] 
Array
(
    [Android] => Array
        (
            [0] => Array
                (
                    [id] => 36
                    [context] => 
                    [month] => 4
                    [day] => 5
                )

        )

)

[2016-05-11 21:11:32] 140.113.69.111  HTTP/1.1  POST  /Notification/mobile_notificationServer.php    Dalvik/1.6.0 (Linux; U; Android 4.3; LT29i Build/9.2.A.1.205)
[2016-05-11 21:11:32] 
Array
(
    [op] => getnot
    [id] => 320
    [data] => 
)

[2016-05-11 21:11:32] 
Array
(
    [Android] => Array
        (
            [0] => Array
                (
                    [id] => 36
                    [context] => 
                    [month] => 4
                    [day] => 5
                )

        )

)

[2016-05-11 21:14:41] 140.113.69.111  HTTP/1.1  POST  /Notification/mobile_notificationServer.php    Dalvik/1.6.0 (Linux; U; Android 4.3; LT29i Build/9.2.A.1.205)
[2016-05-11 21:14:41] 
Array
(
    [op] => getnot
    [id] => 320
    [data] => 
)

[2016-05-11 21:14:41] 
Array
(
    [Android] => Array
        (
            [0] => Array
                (
                    [id] => 36
                    [context] => 
                    [month] => 4
                    [day] => 5
                )

        )

)

[2016-05-11 21:15:19] 140.113.69.111  HTTP/1.1  POST  /Notification/mobile_notificationServer.php    Dalvik/1.6.0 (Linux; U; Android 4.3; LT29i Build/9.2.A.1.205)
[2016-05-11 21:15:19] 
Array
(
    [op] => getnot
    [id] => 320
    [data] => 
)

[2016-05-11 21:15:19] 
Array
(
    [Android] => Array
        (
            [0] => Array
                (
                    [id] => 36
                    [context] => 測試
                    [month] => 4
                    [day] => 5
                )

        )

)

[2016-05-11 21:20:21] 140.113.69.111  HTTP/1.1  POST  /Notification/mobile_notificationServer.php    Dalvik/1.6.0 (Linux; U; Android 4.3; LT29i Build/9.2.A.1.205)
[2016-05-11 21:20:21] 
Array
(
    [op] => getnot
    [id] => 320
    [data] => 
)

[2016-05-11 21:20:21] 
Array
(
    [Android] => Array
        (
            [0] => Array
                (
                    [id] => 36
                    [context] => 測試
                    [month] => 4
                    [day] => 5
                )

        )

)

[2016-05-11 21:29:00] 140.113.69.111  HTTP/1.1  POST  /Notification/mobile_notificationServer.php    Dalvik/1.6.0 (Linux; U; Android 4.4.2; NoxW Build/KOT49H)
[2016-05-11 21:29:00] 
Array
(
    [op] => getnot
    [id] => 321
    [data] => 
)

[2016-05-11 21:29:00] 
Array
(
    [Android] => Array
        (
            [0] => Array
                (
                    [id] => 36
                    [context] => 測試
                    [month] => 4
                    [day] => 5
                )

        )

)

[2016-05-11 21:34:20] 140.113.69.111  HTTP/1.1  POST  /Notification/mobile_notificationServer.php    Dalvik/1.6.0 (Linux; U; Android 4.3; LT29i Build/9.2.A.1.205)
[2016-05-11 21:34:20] 
Array
(
    [op] => getnot
    [id] => 320
    [data] => 
)

[2016-05-11 21:34:20] 
Array
(
    [Android] => Array
        (
            [0] => Array
                (
                    [id] => 36
                    [context] => 測試
                    [month] => 4
                    [day] => 5
                )

        )

)

[2016-05-11 21:38:29] 140.113.69.111  HTTP/1.1  POST  /Notification/mobile_notificationServer.php    Dalvik/1.6.0 (Linux; U; Android 4.4.2; NoxW Build/KOT49H)
[2016-05-11 21:38:29] 
Array
(
    [op] => getnot
    [id] => 322
    [data] => 
)

[2016-05-11 21:38:29] 
Array
(
    [Android] => Array
        (
            [0] => Array
                (
                    [id] => 36
                    [context] => 測試
                    [month] => 4
                    [day] => 5
                )

        )

)

[2016-05-11 23:18:40] 140.113.69.111  HTTP/1.1  POST  /Notification/mobile_notificationServer.php    Dalvik/1.6.0 (Linux; U; Android 4.3; LT29i Build/9.2.A.1.205)
[2016-05-11 23:18:40] 
Array
(
    [op] => getnot
    [id] => 320
    [data] => 
)

[2016-05-11 23:18:40] 
Array
(
    [Android] => Array
        (
            [0] => Array
                (
                    [id] => 36
                    [context] => 測試
                    [month] => 4
                    [day] => 5
                )

        )

)

[2016-05-11 23:28:15] 140.113.69.111  HTTP/1.1  POST  /Notification/mobile_notificationServer.php    Dalvik/1.6.0 (Linux; U; Android 4.4.2; NoxW Build/KOT49H)
[2016-05-11 23:28:15] 
Array
(
    [op] => getnot
    [id] => 322
    [data] => 
)

[2016-05-11 23:28:15] 
Array
(
    [Android] => Array
        (
            [0] => Array
                (
                    [id] => 36
                    [context] => 測試
                    [month] => 4
                    [day] => 5
                )

        )

)

[2016-05-11 23:30:08] 140.113.69.111  HTTP/1.1  POST  /Notification/mobile_notificationServer.php    Dalvik/1.6.0 (Linux; U; Android 4.3; LT29i Build/9.2.A.1.205)
[2016-05-11 23:30:08] 
Array
(
    [op] => getnot
    [id] => 320
    [data] => 
)

[2016-05-11 23:30:08] 
Array
(
    [Android] => Array
        (
            [0] => Array
                (
                    [id] => 36
                    [context] => 測試
                    [month] => 4
                    [day] => 5
                )

        )

)

[2016-05-12 08:20:23] 118.160.83.12  HTTP/1.1  POST  /Notification/mobile_notificationServer.php    Dalvik/1.6.0 (Linux; U; Android 4.4.2; ASUS_T00J Build/KVT49L)
[2016-05-12 08:20:23] 
Array
(
    [op] => getnot
    [id] => 295
    [data] => 
)

[2016-05-12 08:20:23] 
Array
(
    [Android] => Array
        (
        )

)

[2016-05-12 08:31:44] 220.135.141.83  HTTP/1.1  POST  /Notification/mobile_notificationServer.php    Dalvik/1.6.0 (Linux; U; Android 4.4.2; SM-G900F Build/KOT49H)
[2016-05-12 08:31:44] 
Array
(
    [op] => getnot
    [id] => 296
    [data] => 
)

[2016-05-12 08:31:44] 
Array
(
    [Android] => Array
        (
        )

)

[2016-05-12 08:32:08] 220.135.141.83  HTTP/1.1  POST  /Notification/mobile_notificationServer.php    Dalvik/1.6.0 (Linux; U; Android 4.4.2; SM-G900F Build/KOT49H)
[2016-05-12 08:32:08] 
Array
(
    [op] => getnot
    [id] => 296
    [data] => 
)

[2016-05-12 08:32:08] 
Array
(
    [Android] => Array
        (
        )

)

[2016-05-12 10:34:13] 140.113.69.111  HTTP/1.1  POST  /Notification/mobile_notificationServer.php    Dalvik/1.6.0 (Linux; U; Android 4.3; LT29i Build/9.2.A.1.205)
[2016-05-12 10:34:13] 
Array
(
    [op] => getnot
    [id] => 320
    [data] => 
)

[2016-05-12 10:34:13] 
Array
(
    [Android] => Array
        (
        )

)

[2016-05-12 12:57:33] 140.113.69.111  HTTP/1.1  POST  /Notification/mobile_notificationServer.php    Dalvik/1.6.0 (Linux; U; Android 4.3; LT29i Build/9.2.A.1.205)
[2016-05-12 12:57:33] 
Array
(
    [op] => getnot
    [id] => 320
    [data] => 
)

[2016-05-12 12:57:33] 
Array
(
    [Android] => Array
        (
        )

)

[2016-05-12 13:05:30] 140.113.69.111  HTTP/1.1  POST  /Notification/mobile_notificationServer.php    Dalvik/1.6.0 (Linux; U; Android 4.3; LT29i Build/9.2.A.1.205)
[2016-05-12 13:05:30] 
Array
(
    [op] => getnot
    [id] => 320
    [data] => 
)

[2016-05-12 13:05:30] 
Array
(
    [Android] => Array
        (
        )

)

[2016-05-12 13:06:40] 140.113.69.111  HTTP/1.1  POST  /Notification/mobile_notificationServer.php    Dalvik/1.6.0 (Linux; U; Android 4.3; LT29i Build/9.2.A.1.205)
[2016-05-12 13:06:40] 
Array
(
    [op] => getnot
    [id] => 320
    [data] => 
)

[2016-05-12 13:06:40] 
Array
(
    [Android] => Array
        (
        )

)

[2016-05-12 13:10:40] 140.113.69.111  HTTP/1.1  POST  /Notification/mobile_notificationServer.php    Dalvik/1.6.0 (Linux; U; Android 4.3; LT29i Build/9.2.A.1.205)
[2016-05-12 13:10:40] 
Array
(
    [op] => getnot
    [id] => 320
    [data] => 
)

[2016-05-12 13:10:40] 
Array
(
    [Android] => Array
        (
        )

)

[2016-05-12 14:21:07] 140.113.136.220  HTTP/1.1  POST  /Notification/mobile_notificationServer.php    Dalvik/1.6.0 (Linux; U; Android 4.3; LT29i Build/9.2.A.1.205)
[2016-05-12 14:21:07] 
Array
(
    [op] => getnot
    [id] => 320
    [data] => 
)

[2016-05-12 14:21:07] 
Array
(
    [Android] => Array
        (
        )

)

[2016-05-12 16:33:14] 140.113.69.111  HTTP/1.1  POST  /Notification/mobile_notificationServer.php    Dalvik/1.6.0 (Linux; U; Android 4.3; LT29i Build/9.2.A.1.205)
[2016-05-12 16:33:14] 
Array
(
    [op] => getnot
    [id] => 320
    [data] => 
)

[2016-05-12 16:33:14] 
Array
(
    [Android] => Array
        (
        )

)

[2016-05-12 16:39:43] 140.113.69.111  HTTP/1.1  POST  /Notification/mobile_notificationServer.php    Dalvik/1.6.0 (Linux; U; Android 4.3; LT29i Build/9.2.A.1.205)
[2016-05-12 16:39:43] 
Array
(
    [op] => getnot
    [id] => 320
    [data] => 
)

[2016-05-12 16:39:43] 
Array
(
    [Android] => Array
        (
        )

)

[2016-05-12 16:40:51] 140.113.69.111  HTTP/1.1  POST  /Notification/mobile_notificationServer.php    Dalvik/1.6.0 (Linux; U; Android 4.3; LT29i Build/9.2.A.1.205)
[2016-05-12 16:40:51] 
Array
(
    [op] => getnot
    [id] => 320
    [data] => 
)

[2016-05-12 16:40:51] 
Array
(
    [Android] => Array
        (
        )

)

[2016-05-12 16:44:03] 140.113.69.111  HTTP/1.1  POST  /Notification/mobile_notificationServer.php    Dalvik/1.6.0 (Linux; U; Android 4.3; LT29i Build/9.2.A.1.205)
[2016-05-12 16:44:03] 
Array
(
    [op] => getnot
    [id] => 320
    [data] => 
)

[2016-05-12 16:44:03] 
Array
(
    [Android] => Array
        (
        )

)

[2016-05-12 17:14:12] 140.113.69.111  HTTP/1.1  POST  /Notification/mobile_notificationServer.php    Dalvik/1.6.0 (Linux; U; Android 4.3; LT29i Build/9.2.A.1.205)
[2016-05-12 17:14:12] 
Array
(
    [op] => getnot
    [id] => 320
    [data] => 
)

[2016-05-12 17:14:12] 
Array
(
    [Android] => Array
        (
        )

)

[2016-05-12 17:17:42] 140.113.69.111  HTTP/1.1  POST  /Notification/mobile_notificationServer.php    Dalvik/1.6.0 (Linux; U; Android 4.3; LT29i Build/9.2.A.1.205)
[2016-05-12 17:17:42] 
Array
(
    [op] => getnot
    [id] => 320
    [data] => 
)

[2016-05-12 17:17:42] 
Array
(
    [Android] => Array
        (
        )

)

[2016-05-12 17:18:40] 140.113.69.111  HTTP/1.1  POST  /Notification/mobile_notificationServer.php    Dalvik/1.6.0 (Linux; U; Android 4.3; LT29i Build/9.2.A.1.205)
[2016-05-12 17:18:40] 
Array
(
    [op] => getnot
    [id] => 320
    [data] => 
)

[2016-05-12 17:18:40] 
Array
(
    [Android] => Array
        (
        )

)

[2016-05-12 17:21:26] 140.113.69.111  HTTP/1.1  POST  /Notification/mobile_notificationServer.php    Dalvik/1.6.0 (Linux; U; Android 4.3; LT29i Build/9.2.A.1.205)
[2016-05-12 17:21:26] 
Array
(
    [op] => getnot
    [id] => 320
    [data] => 
)

[2016-05-12 17:21:26] 
Array
(
    [Android] => Array
        (
        )

)

[2016-05-12 17:25:55] 140.113.69.111  HTTP/1.1  POST  /Notification/mobile_notificationServer.php    Dalvik/1.6.0 (Linux; U; Android 4.3; LT29i Build/9.2.A.1.205)
[2016-05-12 17:25:55] 
Array
(
    [op] => getnot
    [id] => 320
    [data] => 
)

[2016-05-12 17:25:55] 
Array
(
    [Android] => Array
        (
        )

)

[2016-05-12 17:29:55] 140.113.69.111  HTTP/1.1  POST  /Notification/mobile_notificationServer.php    Dalvik/1.6.0 (Linux; U; Android 4.3; LT29i Build/9.2.A.1.205)
[2016-05-12 17:29:55] 
Array
(
    [op] => getnot
    [id] => 320
    [data] => 
)

[2016-05-12 17:29:55] 
Array
(
    [Android] => Array
        (
        )

)

[2016-05-12 17:33:00] 140.113.69.111  HTTP/1.1  POST  /Notification/mobile_notificationServer.php    Dalvik/1.6.0 (Linux; U; Android 4.3; LT29i Build/9.2.A.1.205)
[2016-05-12 17:33:00] 
Array
(
    [op] => getnot
    [id] => 320
    [data] => 
)

[2016-05-12 17:33:00] 
Array
(
    [Android] => Array
        (
        )

)

[2016-05-12 17:45:25] 140.113.69.111  HTTP/1.1  POST  /Notification/mobile_notificationServer.php    Dalvik/1.6.0 (Linux; U; Android 4.3; LT29i Build/9.2.A.1.205)
[2016-05-12 17:45:25] 
Array
(
    [op] => getnot
    [id] => 320
    [data] => 
)

[2016-05-12 17:45:25] 
Array
(
    [Android] => Array
        (
        )

)

[2016-05-12 17:46:15] 140.113.69.111  HTTP/1.1  POST  /Notification/mobile_notificationServer.php    Dalvik/1.6.0 (Linux; U; Android 4.3; LT29i Build/9.2.A.1.205)
[2016-05-12 17:46:15] 
Array
(
    [op] => getnot
    [id] => 320
    [data] => 
)

[2016-05-12 17:46:15] 
Array
(
    [Android] => Array
        (
        )

)

[2016-05-12 17:47:17] 140.113.69.111  HTTP/1.1  POST  /Notification/mobile_notificationServer.php    Dalvik/1.6.0 (Linux; U; Android 4.3; LT29i Build/9.2.A.1.205)
[2016-05-12 17:47:17] 
Array
(
    [op] => getnot
    [id] => 320
    [data] => 
)

[2016-05-12 17:47:17] 
Array
(
    [Android] => Array
        (
        )

)

[2016-05-12 18:05:19] 140.113.69.111  HTTP/1.1  POST  /Notification/mobile_notificationServer.php    Dalvik/1.6.0 (Linux; U; Android 4.3; LT29i Build/9.2.A.1.205)
[2016-05-12 18:05:19] 
Array
(
    [op] => getnot
    [id] => 320
    [data] => 
)

[2016-05-12 18:05:19] 
Array
(
    [Android] => Array
        (
        )

)

[2016-05-12 18:15:05] 140.113.69.111  HTTP/1.1  POST  /Notification/mobile_notificationServer.php    Dalvik/1.6.0 (Linux; U; Android 4.3; LT29i Build/9.2.A.1.205)
[2016-05-12 18:15:05] 
Array
(
    [op] => getnot
    [id] => 320
    [data] => 
)

[2016-05-12 18:15:05] 
Array
(
    [Android] => Array
        (
        )

)

[2016-05-12 19:33:23] 118.160.83.12  HTTP/1.1  POST  /Notification/mobile_notificationServer.php    Dalvik/1.6.0 (Linux; U; Android 4.4.2; ASUS_T00J Build/KVT49L)
[2016-05-12 19:33:23] 
Array
(
    [op] => getnot
    [id] => 295
    [data] => 
)

[2016-05-12 19:33:23] 
Array
(
    [Android] => Array
        (
        )

)

[2016-05-12 19:37:42] 140.113.69.111  HTTP/1.1  POST  /Notification/mobile_notificationServer.php    Dalvik/1.6.0 (Linux; U; Android 4.3; LT29i Build/9.2.A.1.205)
[2016-05-12 19:37:42] 
Array
(
    [op] => getnot
    [id] => 320
    [data] => 
)

[2016-05-12 19:37:42] 
Array
(
    [Android] => Array
        (
        )

)

[2016-05-12 19:56:22] 118.160.83.12  HTTP/1.1  POST  /Notification/mobile_notificationServer.php    Dalvik/1.6.0 (Linux; U; Android 4.2.2; C6602 Build/10.3.1.A.2.67)
[2016-05-12 19:56:22] 
Array
(
    [op] => getnot
    [id] => 303
    [data] => 
)

[2016-05-12 19:56:22] 
Array
(
    [Android] => Array
        (
        )

)

[2016-05-12 23:32:24] 140.113.69.111  HTTP/1.1  POST  /Notification/mobile_notificationServer.php    Dalvik/1.6.0 (Linux; U; Android 4.3; LT29i Build/9.2.A.1.205)
[2016-05-12 23:32:24] 
Array
(
    [op] => getnot
    [id] => 320
    [data] => 
)

[2016-05-12 23:32:24] 
Array
(
    [Android] => Array
        (
        )

)

[2016-05-12 23:36:46] 140.113.69.111  HTTP/1.1  POST  /Notification/mobile_notificationServer.php    Dalvik/1.6.0 (Linux; U; Android 4.3; LT29i Build/9.2.A.1.205)
[2016-05-12 23:36:46] 
Array
(
    [op] => getnot
    [id] => 323
    [data] => 
)

[2016-05-12 23:36:46] 
Array
(
    [Android] => Array
        (
        )

)

[2016-05-13 13:25:19] 140.113.69.111  HTTP/1.1  POST  /Notification/mobile_notificationServer.php    Dalvik/1.6.0 (Linux; U; Android 4.3; LT29i Build/9.2.A.1.205)
[2016-05-13 13:25:19] 
Array
(
    [op] => getnot
    [id] => 323
    [data] => 
)

[2016-05-13 13:25:19] 
Array
(
    [Android] => Array
        (
        )

)

[2016-05-13 13:33:32] 140.113.69.111  HTTP/1.1  POST  /Notification/mobile_notificationServer.php    Dalvik/1.6.0 (Linux; U; Android 4.3; LT29i Build/9.2.A.1.205)
[2016-05-13 13:33:32] 
Array
(
    [op] => getnot
    [id] => 323
    [data] => 
)

[2016-05-13 13:33:32] 
Array
(
    [Android] => Array
        (
        )

)

[2016-05-13 13:34:37] 140.113.69.111  HTTP/1.1  POST  /Notification/mobile_notificationServer.php    Dalvik/1.6.0 (Linux; U; Android 4.3; LT29i Build/9.2.A.1.205)
[2016-05-13 13:34:37] 
Array
(
    [op] => getnot
    [id] => 323
    [data] => 
)

[2016-05-13 13:34:37] 
Array
(
    [Android] => Array
        (
        )

)

[2016-05-13 13:35:18] 140.113.69.111  HTTP/1.1  POST  /Notification/mobile_notificationServer.php    Dalvik/1.6.0 (Linux; U; Android 4.3; LT29i Build/9.2.A.1.205)
[2016-05-13 13:35:18] 
Array
(
    [op] => getnot
    [id] => 323
    [data] => 
)

[2016-05-13 13:35:18] 
Array
(
    [Android] => Array
        (
        )

)

[2016-05-13 13:37:08] 140.113.69.111  HTTP/1.1  POST  /Notification/mobile_notificationServer.php    Dalvik/1.6.0 (Linux; U; Android 4.3; LT29i Build/9.2.A.1.205)
[2016-05-13 13:37:08] 
Array
(
    [op] => getnot
    [id] => 323
    [data] => 
)

[2016-05-13 13:37:08] 
Array
(
    [Android] => Array
        (
        )

)

[2016-05-13 13:37:39] 140.113.69.111  HTTP/1.1  POST  /Notification/mobile_notificationServer.php    Dalvik/1.6.0 (Linux; U; Android 4.3; LT29i Build/9.2.A.1.205)
[2016-05-13 13:37:39] 
Array
(
    [op] => getnot
    [id] => 323
    [data] => 
)

[2016-05-13 13:37:39] 
Array
(
    [Android] => Array
        (
        )

)

[2016-05-13 13:37:57] 140.113.69.111  HTTP/1.1  POST  /Notification/mobile_notificationServer.php    Dalvik/1.6.0 (Linux; U; Android 4.3; LT29i Build/9.2.A.1.205)
[2016-05-13 13:37:57] 
Array
(
    [op] => getnot
    [id] => 323
    [data] => 
)

[2016-05-13 13:37:57] 
Array
(
    [Android] => Array
        (
        )

)

[2016-05-13 13:47:25] 140.113.69.111  HTTP/1.1  POST  /Notification/mobile_notificationServer.php    Dalvik/1.6.0 (Linux; U; Android 4.3; LT29i Build/9.2.A.1.205)
[2016-05-13 13:47:25] 
Array
(
    [op] => getnot
    [id] => 323
    [data] => 
)

[2016-05-13 13:47:25] 
Array
(
    [Android] => Array
        (
        )

)

[2016-05-13 15:33:39] 140.113.69.111  HTTP/1.1  POST  /Notification/mobile_notificationServer.php    Dalvik/1.6.0 (Linux; U; Android 4.4.2; NoxW Build/KOT49H)
[2016-05-13 15:33:39] 
Array
(
    [op] => getnot
    [id] => 322
    [data] => 
)

[2016-05-13 15:33:39] 
Array
(
    [Android] => Array
        (
        )

)

[2016-05-13 15:35:20] 140.113.69.111  HTTP/1.1  POST  /Notification/mobile_notificationServer.php    Dalvik/1.6.0 (Linux; U; Android 4.3; LT29i Build/9.2.A.1.205)
[2016-05-13 15:35:20] 
Array
(
    [op] => getnot
    [id] => 323
    [data] => 
)

[2016-05-13 15:35:20] 
Array
(
    [Android] => Array
        (
        )

)

[2016-05-13 15:38:27] 140.113.69.111  HTTP/1.1  POST  /Notification/mobile_notificationServer.php    Dalvik/1.6.0 (Linux; U; Android 4.3; LT29i Build/9.2.A.1.205)
[2016-05-13 15:38:27] 
Array
(
    [op] => getnot
    [id] => 323
    [data] => 
)

[2016-05-13 15:38:27] 
Array
(
    [Android] => Array
        (
        )

)

[2016-05-13 16:02:43] 140.113.69.111  HTTP/1.1  POST  /Notification/mobile_notificationServer.php    Dalvik/1.6.0 (Linux; U; Android 4.3; LT29i Build/9.2.A.1.205)
[2016-05-13 16:02:43] 
Array
(
    [op] => getnot
    [id] => 323
    [data] => 
)

[2016-05-13 16:02:43] 
Array
(
    [Android] => Array
        (
        )

)

[2016-05-13 16:04:06] 140.113.69.111  HTTP/1.1  POST  /Notification/mobile_notificationServer.php    Dalvik/1.6.0 (Linux; U; Android 4.3; LT29i Build/9.2.A.1.205)
[2016-05-13 16:04:06] 
Array
(
    [op] => getnot
    [id] => 323
    [data] => 
)

[2016-05-13 16:04:06] 
Array
(
    [Android] => Array
        (
        )

)

[2016-05-13 16:12:00] 140.113.69.111  HTTP/1.1  POST  /Notification/mobile_notificationServer.php    Dalvik/1.6.0 (Linux; U; Android 4.3; LT29i Build/9.2.A.1.205)
[2016-05-13 16:12:00] 
Array
(
    [op] => getnot
    [id] => 323
    [data] => 
)

[2016-05-13 16:12:00] 
Array
(
    [Android] => Array
        (
        )

)

[2016-05-13 16:12:54] 140.113.69.111  HTTP/1.1  POST  /Notification/mobile_notificationServer.php    Dalvik/1.6.0 (Linux; U; Android 4.3; LT29i Build/9.2.A.1.205)
[2016-05-13 16:12:54] 
Array
(
    [op] => getnot
    [id] => 323
    [data] => 
)

[2016-05-13 16:12:54] 
Array
(
    [Android] => Array
        (
        )

)

[2016-05-13 16:14:30] 140.113.69.111  HTTP/1.1  POST  /Notification/mobile_notificationServer.php    Dalvik/1.6.0 (Linux; U; Android 4.3; LT29i Build/9.2.A.1.205)
[2016-05-13 16:14:30] 
Array
(
    [op] => getnot
    [id] => 323
    [data] => 
)

[2016-05-13 16:14:30] 
Array
(
    [Android] => Array
        (
        )

)

[2016-05-13 16:15:31] 140.113.69.111  HTTP/1.1  POST  /Notification/mobile_notificationServer.php    Dalvik/1.6.0 (Linux; U; Android 4.3; LT29i Build/9.2.A.1.205)
[2016-05-13 16:15:31] 
Array
(
    [op] => getnot
    [id] => 323
    [data] => 
)

[2016-05-13 16:15:31] 
Array
(
    [Android] => Array
        (
        )

)

[2016-05-13 16:16:25] 140.113.69.111  HTTP/1.1  POST  /Notification/mobile_notificationServer.php    Dalvik/1.6.0 (Linux; U; Android 4.3; LT29i Build/9.2.A.1.205)
[2016-05-13 16:16:25] 
Array
(
    [op] => getnot
    [id] => 323
    [data] => 
)

[2016-05-13 16:16:25] 
Array
(
    [Android] => Array
        (
        )

)

[2016-05-13 16:18:06] 140.113.69.111  HTTP/1.1  POST  /Notification/mobile_notificationServer.php    Dalvik/1.6.0 (Linux; U; Android 4.3; LT29i Build/9.2.A.1.205)
[2016-05-13 16:18:06] 
Array
(
    [op] => getnot
    [id] => 323
    [data] => 
)

[2016-05-13 16:18:06] 
Array
(
    [Android] => Array
        (
        )

)

[2016-05-13 16:20:01] 140.113.69.111  HTTP/1.1  POST  /Notification/mobile_notificationServer.php    Dalvik/1.6.0 (Linux; U; Android 4.3; LT29i Build/9.2.A.1.205)
[2016-05-13 16:20:01] 
Array
(
    [op] => getnot
    [id] => 323
    [data] => 
)

[2016-05-13 16:20:01] 
Array
(
    [Android] => Array
        (
        )

)

[2016-05-13 16:21:15] 140.113.69.111  HTTP/1.1  POST  /Notification/mobile_notificationServer.php    Dalvik/1.6.0 (Linux; U; Android 4.3; LT29i Build/9.2.A.1.205)
[2016-05-13 16:21:15] 
Array
(
    [op] => getnot
    [id] => 323
    [data] => 
)

[2016-05-13 16:21:15] 
Array
(
    [Android] => Array
        (
        )

)

[2016-05-13 16:22:05] 140.113.69.111  HTTP/1.1  POST  /Notification/mobile_notificationServer.php    Dalvik/1.6.0 (Linux; U; Android 4.3; LT29i Build/9.2.A.1.205)
[2016-05-13 16:22:05] 
Array
(
    [op] => getnot
    [id] => 323
    [data] => 
)

[2016-05-13 16:22:05] 
Array
(
    [Android] => Array
        (
        )

)

[2016-05-13 16:23:16] 140.113.69.111  HTTP/1.1  POST  /Notification/mobile_notificationServer.php    Dalvik/1.6.0 (Linux; U; Android 4.3; LT29i Build/9.2.A.1.205)
[2016-05-13 16:23:16] 
Array
(
    [op] => getnot
    [id] => 323
    [data] => 
)

[2016-05-13 16:23:16] 
Array
(
    [Android] => Array
        (
        )

)

[2016-05-13 16:24:42] 140.113.69.111  HTTP/1.1  POST  /Notification/mobile_notificationServer.php    Dalvik/1.6.0 (Linux; U; Android 4.3; LT29i Build/9.2.A.1.205)
[2016-05-13 16:24:42] 
Array
(
    [op] => getnot
    [id] => 323
    [data] => 
)

[2016-05-13 16:24:42] 
Array
(
    [Android] => Array
        (
        )

)

[2016-05-13 16:25:41] 140.113.69.111  HTTP/1.1  POST  /Notification/mobile_notificationServer.php    Dalvik/1.6.0 (Linux; U; Android 4.3; LT29i Build/9.2.A.1.205)
[2016-05-13 16:25:41] 
Array
(
    [op] => getnot
    [id] => 323
    [data] => 
)

[2016-05-13 16:25:41] 
Array
(
    [Android] => Array
        (
        )

)

[2016-05-13 16:31:32] 140.113.69.111  HTTP/1.1  POST  /Notification/mobile_notificationServer.php    Dalvik/1.6.0 (Linux; U; Android 4.4.2; NoxW Build/KOT49H)
[2016-05-13 16:31:32] 
Array
(
    [op] => getnot
    [id] => 324
    [data] => 
)

[2016-05-13 16:31:32] 
Array
(
    [Android] => Array
        (
        )

)

[2016-05-13 19:44:46] 140.113.69.111  HTTP/1.1  POST  /Notification/mobile_notificationServer.php    Dalvik/1.6.0 (Linux; U; Android 4.3; LT29i Build/9.2.A.1.205)
[2016-05-13 19:44:46] 
Array
(
    [op] => getnot
    [id] => 323
    [data] => 
)

[2016-05-13 19:44:46] 
Array
(
    [Android] => Array
        (
        )

)

[2016-05-13 19:46:14] 140.113.69.111  HTTP/1.1  POST  /Notification/mobile_notificationServer.php    Dalvik/1.6.0 (Linux; U; Android 4.3; LT29i Build/9.2.A.1.205)
[2016-05-13 19:46:14] 
Array
(
    [op] => getnot
    [id] => 323
    [data] => 
)

[2016-05-13 19:46:14] 
Array
(
    [Android] => Array
        (
        )

)

[2016-05-13 19:46:41] 140.113.69.111  HTTP/1.1  POST  /Notification/mobile_notificationServer.php    Dalvik/1.6.0 (Linux; U; Android 4.3; LT29i Build/9.2.A.1.205)
[2016-05-13 19:46:41] 
Array
(
    [op] => getnot
    [id] => 323
    [data] => 
)

[2016-05-13 19:46:41] 
Array
(
    [Android] => Array
        (
        )

)

[2016-05-13 20:50:29] 140.113.69.111  HTTP/1.1  POST  /Notification/mobile_notificationServer.php    Dalvik/1.6.0 (Linux; U; Android 4.3; LT29i Build/9.2.A.1.205)
[2016-05-13 20:50:29] 
Array
(
    [op] => getnot
    [id] => 323
    [data] => 
)

[2016-05-13 20:50:29] 
Array
(
    [Android] => Array
        (
        )

)

[2016-05-13 20:51:55] 140.113.69.111  HTTP/1.1  POST  /Notification/mobile_notificationServer.php    Dalvik/1.6.0 (Linux; U; Android 4.3; LT29i Build/9.2.A.1.205)
[2016-05-13 20:51:55] 
Array
(
    [op] => getnot
    [id] => 323
    [data] => 
)

[2016-05-13 20:51:55] 
Array
(
    [Android] => Array
        (
        )

)

[2016-05-13 20:56:46] 140.113.69.111  HTTP/1.1  POST  /Notification/mobile_notificationServer.php    Dalvik/1.6.0 (Linux; U; Android 4.3; LT29i Build/9.2.A.1.205)
[2016-05-13 20:56:46] 
Array
(
    [op] => getnot
    [id] => 323
    [data] => 
)

[2016-05-13 20:56:46] 
Array
(
    [Android] => Array
        (
        )

)

[2016-05-13 21:30:12] 220.135.141.83  HTTP/1.1  POST  /Notification/mobile_notificationServer.php    Dalvik/1.6.0 (Linux; U; Android 4.4.2; SM-G900F Build/KOT49H)
[2016-05-13 21:30:12] 
Array
(
    [op] => getnot
    [id] => 296
    [data] => 
)

[2016-05-13 21:30:12] 
Array
(
    [Android] => Array
        (
        )

)

[2016-05-14 08:03:07] 110.27.201.113  HTTP/1.1  POST  /Notification/mobile_notificationServer.php    Dalvik/1.6.0 (Linux; U; Android 4.4.2; ASUS_T00J Build/KVT49L)
[2016-05-14 08:03:07] 
Array
(
    [op] => getnot
    [id] => 325
    [data] => 
)

[2016-05-14 08:03:07] 
Array
(
    [Android] => Array
        (
        )

)

[2016-05-14 09:18:40] 110.26.65.211  HTTP/1.1  POST  /Notification/mobile_notificationServer.php    Dalvik/1.6.0 (Linux; U; Android 4.4.2; ASUS_T00J Build/KVT49L)
[2016-05-14 09:18:40] 
Array
(
    [op] => getnot
    [id] => 325
    [data] => 
)

[2016-05-14 09:18:40] 
Array
(
    [Android] => Array
        (
        )

)

[2016-05-14 09:19:15] 110.26.65.211  HTTP/1.1  POST  /Notification/mobile_notificationServer.php    Dalvik/1.6.0 (Linux; U; Android 4.4.2; ASUS_T00J Build/KVT49L)
[2016-05-14 09:19:15] 
Array
(
    [op] => getnot
    [id] => 325
    [data] => 
)

[2016-05-14 09:19:15] 
Array
(
    [Android] => Array
        (
        )

)

[2016-05-14 10:29:21] 140.113.69.111  HTTP/1.1  POST  /Notification/mobile_notificationServer.php    Dalvik/1.6.0 (Linux; U; Android 4.3; LT29i Build/9.2.A.1.205)
[2016-05-14 10:29:21] 
Array
(
    [op] => getnot
    [id] => 323
    [data] => 
)

[2016-05-14 10:29:21] 
Array
(
    [Android] => Array
        (
        )

)

[2016-05-14 11:26:29] 110.26.65.211  HTTP/1.1  POST  /Notification/mobile_notificationServer.php    Dalvik/1.6.0 (Linux; U; Android 4.4.2; ASUS_T00J Build/KVT49L)
[2016-05-14 11:26:29] 
Array
(
    [op] => getnot
    [id] => 325
    [data] => 
)

[2016-05-14 11:26:29] 
Array
(
    [Android] => Array
        (
        )

)

[2016-05-14 11:42:21] 140.113.69.111  HTTP/1.1  POST  /Notification/mobile_notificationServer.php    Dalvik/1.6.0 (Linux; U; Android 4.3; LT29i Build/9.2.A.1.205)
[2016-05-14 11:42:21] 
Array
(
    [op] => getnot
    [id] => 323
    [data] => 
)

[2016-05-14 11:42:21] 
Array
(
    [Android] => Array
        (
        )

)

[2016-05-14 11:46:23] 140.113.69.111  HTTP/1.1  POST  /Notification/mobile_notificationServer.php    Dalvik/1.6.0 (Linux; U; Android 4.3; LT29i Build/9.2.A.1.205)
[2016-05-14 11:46:23] 
Array
(
    [op] => getnot
    [id] => 323
    [data] => 
)

[2016-05-14 11:46:23] 
Array
(
    [Android] => Array
        (
        )

)

[2016-05-14 11:47:54] 140.113.69.111  HTTP/1.1  POST  /Notification/mobile_notificationServer.php    Dalvik/1.6.0 (Linux; U; Android 4.3; LT29i Build/9.2.A.1.205)
[2016-05-14 11:47:54] 
Array
(
    [op] => getnot
    [id] => 323
    [data] => 
)

[2016-05-14 11:47:54] 
Array
(
    [Android] => Array
        (
        )

)

[2016-05-14 11:49:24] 140.113.69.111  HTTP/1.1  POST  /Notification/mobile_notificationServer.php    Dalvik/1.6.0 (Linux; U; Android 4.3; LT29i Build/9.2.A.1.205)
[2016-05-14 11:49:24] 
Array
(
    [op] => getnot
    [id] => 323
    [data] => 
)

[2016-05-14 11:49:24] 
Array
(
    [Android] => Array
        (
        )

)

[2016-05-14 11:57:20] 140.113.69.111  HTTP/1.1  POST  /Notification/mobile_notificationServer.php    Dalvik/1.6.0 (Linux; U; Android 4.3; LT29i Build/9.2.A.1.205)
[2016-05-14 11:57:20] 
Array
(
    [op] => getnot
    [id] => 323
    [data] => 
)

[2016-05-14 11:57:20] 
Array
(
    [Android] => Array
        (
        )

)

[2016-05-14 12:01:13] 140.113.69.111  HTTP/1.1  POST  /Notification/mobile_notificationServer.php    Dalvik/1.6.0 (Linux; U; Android 4.3; LT29i Build/9.2.A.1.205)
[2016-05-14 12:01:13] 
Array
(
    [op] => getnot
    [id] => 323
    [data] => 
)

[2016-05-14 12:01:13] 
Array
(
    [Android] => Array
        (
        )

)

[2016-05-14 12:05:35] 140.113.69.111  HTTP/1.1  POST  /Notification/mobile_notificationServer.php    Dalvik/1.6.0 (Linux; U; Android 4.3; LT29i Build/9.2.A.1.205)
[2016-05-14 12:05:35] 
Array
(
    [op] => getnot
    [id] => 323
    [data] => 
)

[2016-05-14 12:05:35] 
Array
(
    [Android] => Array
        (
        )

)

[2016-05-14 12:06:11] 140.113.69.111  HTTP/1.1  POST  /Notification/mobile_notificationServer.php    Dalvik/1.6.0 (Linux; U; Android 4.3; LT29i Build/9.2.A.1.205)
[2016-05-14 12:06:11] 
Array
(
    [op] => getnot
    [id] => 323
    [data] => 
)

[2016-05-14 12:06:11] 
Array
(
    [Android] => Array
        (
        )

)

[2016-05-14 12:30:05] 140.113.69.111  HTTP/1.1  POST  /Notification/mobile_notificationServer.php    Dalvik/1.6.0 (Linux; U; Android 4.3; LT29i Build/9.2.A.1.205)
[2016-05-14 12:30:05] 
Array
(
    [op] => getnot
    [id] => 323
    [data] => 
)

[2016-05-14 12:30:05] 
Array
(
    [Android] => Array
        (
        )

)

[2016-05-14 12:31:53] 140.113.69.111  HTTP/1.1  POST  /Notification/mobile_notificationServer.php    Dalvik/1.6.0 (Linux; U; Android 4.3; LT29i Build/9.2.A.1.205)
[2016-05-14 12:31:53] 
Array
(
    [op] => getnot
    [id] => 323
    [data] => 
)

[2016-05-14 12:31:53] 
Array
(
    [Android] => Array
        (
        )

)

[2016-05-14 12:40:20] 140.113.69.111  HTTP/1.1  POST  /Notification/mobile_notificationServer.php    Dalvik/1.6.0 (Linux; U; Android 4.3; LT29i Build/9.2.A.1.205)
[2016-05-14 12:40:20] 
Array
(
    [op] => getnot
    [id] => 323
    [data] => 
)

[2016-05-14 12:40:20] 
Array
(
    [Android] => Array
        (
        )

)

[2016-05-14 12:41:24] 140.113.69.111  HTTP/1.1  POST  /Notification/mobile_notificationServer.php    Dalvik/1.6.0 (Linux; U; Android 4.3; LT29i Build/9.2.A.1.205)
[2016-05-14 12:41:24] 
Array
(
    [op] => getnot
    [id] => 323
    [data] => 
)

[2016-05-14 12:41:24] 
Array
(
    [Android] => Array
        (
        )

)

[2016-05-14 12:42:48] 140.113.69.111  HTTP/1.1  POST  /Notification/mobile_notificationServer.php    Dalvik/1.6.0 (Linux; U; Android 4.3; LT29i Build/9.2.A.1.205)
[2016-05-14 12:42:48] 
Array
(
    [op] => getnot
    [id] => 323
    [data] => 
)

[2016-05-14 12:42:48] 
Array
(
    [Android] => Array
        (
        )

)

[2016-05-14 12:44:56] 140.113.69.111  HTTP/1.1  POST  /Notification/mobile_notificationServer.php    Dalvik/1.6.0 (Linux; U; Android 4.3; LT29i Build/9.2.A.1.205)
[2016-05-14 12:44:56] 
Array
(
    [op] => getnot
    [id] => 323
    [data] => 
)

[2016-05-14 12:44:56] 
Array
(
    [Android] => Array
        (
        )

)

[2016-05-14 12:46:41] 140.113.69.111  HTTP/1.1  POST  /Notification/mobile_notificationServer.php    Dalvik/1.6.0 (Linux; U; Android 4.3; LT29i Build/9.2.A.1.205)
[2016-05-14 12:46:41] 
Array
(
    [op] => getnot
    [id] => 323
    [data] => 
)

[2016-05-14 12:46:41] 
Array
(
    [Android] => Array
        (
        )

)

[2016-05-14 12:47:29] 140.113.69.111  HTTP/1.1  POST  /Notification/mobile_notificationServer.php    Dalvik/1.6.0 (Linux; U; Android 4.3; LT29i Build/9.2.A.1.205)
[2016-05-14 12:47:29] 
Array
(
    [op] => getnot
    [id] => 323
    [data] => 
)

[2016-05-14 12:47:29] 
Array
(
    [Android] => Array
        (
        )

)

[2016-05-14 12:48:40] 140.113.69.111  HTTP/1.1  POST  /Notification/mobile_notificationServer.php    Dalvik/1.6.0 (Linux; U; Android 4.3; LT29i Build/9.2.A.1.205)
[2016-05-14 12:48:40] 
Array
(
    [op] => getnot
    [id] => 323
    [data] => 
)

[2016-05-14 12:48:40] 
Array
(
    [Android] => Array
        (
        )

)

[2016-05-14 12:49:26] 140.113.69.111  HTTP/1.1  POST  /Notification/mobile_notificationServer.php    Dalvik/1.6.0 (Linux; U; Android 4.3; LT29i Build/9.2.A.1.205)
[2016-05-14 12:49:26] 
Array
(
    [op] => getnot
    [id] => 323
    [data] => 
)

[2016-05-14 12:49:26] 
Array
(
    [Android] => Array
        (
        )

)

[2016-05-14 12:50:48] 140.113.69.111  HTTP/1.1  POST  /Notification/mobile_notificationServer.php    Dalvik/1.6.0 (Linux; U; Android 4.3; LT29i Build/9.2.A.1.205)
[2016-05-14 12:50:48] 
Array
(
    [op] => getnot
    [id] => 323
    [data] => 
)

[2016-05-14 12:50:48] 
Array
(
    [Android] => Array
        (
        )

)

[2016-05-14 12:51:55] 140.113.69.111  HTTP/1.1  POST  /Notification/mobile_notificationServer.php    Dalvik/1.6.0 (Linux; U; Android 4.3; LT29i Build/9.2.A.1.205)
[2016-05-14 12:51:55] 
Array
(
    [op] => getnot
    [id] => 323
    [data] => 
)

[2016-05-14 12:51:55] 
Array
(
    [Android] => Array
        (
        )

)

[2016-05-14 12:52:24] 140.113.69.111  HTTP/1.1  POST  /Notification/mobile_notificationServer.php    Dalvik/1.6.0 (Linux; U; Android 4.3; LT29i Build/9.2.A.1.205)
[2016-05-14 12:52:24] 
Array
(
    [op] => getnot
    [id] => 323
    [data] => 
)

[2016-05-14 12:52:24] 
Array
(
    [Android] => Array
        (
        )

)

[2016-05-14 12:53:04] 140.113.69.111  HTTP/1.1  POST  /Notification/mobile_notificationServer.php    Dalvik/1.6.0 (Linux; U; Android 4.3; LT29i Build/9.2.A.1.205)
[2016-05-14 12:53:04] 
Array
(
    [op] => getnot
    [id] => 323
    [data] => 
)

[2016-05-14 12:53:04] 
Array
(
    [Android] => Array
        (
        )

)

[2016-05-14 12:54:31] 140.113.69.111  HTTP/1.1  POST  /Notification/mobile_notificationServer.php    Dalvik/1.6.0 (Linux; U; Android 4.3; LT29i Build/9.2.A.1.205)
[2016-05-14 12:54:31] 
Array
(
    [op] => getnot
    [id] => 323
    [data] => 
)

[2016-05-14 12:54:31] 
Array
(
    [Android] => Array
        (
        )

)

[2016-05-14 12:55:42] 140.113.69.111  HTTP/1.1  POST  /Notification/mobile_notificationServer.php    Dalvik/1.6.0 (Linux; U; Android 4.3; LT29i Build/9.2.A.1.205)
[2016-05-14 12:55:42] 
Array
(
    [op] => getnot
    [id] => 323
    [data] => 
)

[2016-05-14 12:55:42] 
Array
(
    [Android] => Array
        (
        )

)

[2016-05-14 13:04:17] 140.113.69.111  HTTP/1.1  POST  /Notification/mobile_notificationServer.php    Dalvik/1.6.0 (Linux; U; Android 4.3; LT29i Build/9.2.A.1.205)
[2016-05-14 13:04:17] 
Array
(
    [op] => getnot
    [id] => 323
    [data] => 
)

[2016-05-14 13:04:17] 
Array
(
    [Android] => Array
        (
        )

)

[2016-05-14 13:06:09] 140.113.69.111  HTTP/1.1  POST  /Notification/mobile_notificationServer.php    Dalvik/1.6.0 (Linux; U; Android 4.3; LT29i Build/9.2.A.1.205)
[2016-05-14 13:06:09] 
Array
(
    [op] => getnot
    [id] => 326
    [data] => 
)

[2016-05-14 13:06:09] 
Array
(
    [Android] => Array
        (
        )

)

[2016-05-14 13:34:08] 110.26.65.211  HTTP/1.1  POST  /Notification/mobile_notificationServer.php    Dalvik/1.6.0 (Linux; U; Android 4.4.2; ASUS_T00J Build/KVT49L)
[2016-05-14 13:34:08] 
Array
(
    [op] => getnot
    [id] => 325
    [data] => 
)

[2016-05-14 13:34:08] 
Array
(
    [Android] => Array
        (
        )

)

[2016-05-14 20:07:44] 140.113.69.111  HTTP/1.1  POST  /Notification/mobile_notificationServer.php    Dalvik/1.6.0 (Linux; U; Android 4.3; LT29i Build/9.2.A.1.205)
[2016-05-14 20:07:44] 
Array
(
    [op] => getnot
    [id] => 326
    [data] => 
)

[2016-05-14 20:07:44] 
Array
(
    [Android] => Array
        (
        )

)

[2016-05-14 20:12:49] 110.26.65.211  HTTP/1.1  POST  /Notification/mobile_notificationServer.php    Dalvik/1.6.0 (Linux; U; Android 4.4.2; ASUS_T00J Build/KVT49L)
[2016-05-14 20:12:49] 
Array
(
    [op] => getnot
    [id] => 325
    [data] => 
)

[2016-05-14 20:12:49] 
Array
(
    [Android] => Array
        (
        )

)

[2016-05-14 20:19:03] 140.113.69.111  HTTP/1.1  POST  /Notification/mobile_notificationServer.php    Dalvik/1.6.0 (Linux; U; Android 4.3; LT29i Build/9.2.A.1.205)
[2016-05-14 20:19:03] 
Array
(
    [op] => getnot
    [id] => 326
    [data] => 
)

[2016-05-14 20:19:03] 
Array
(
    [Android] => Array
        (
        )

)

[2016-05-14 20:54:08] 140.113.69.111  HTTP/1.1  POST  /Notification/mobile_notificationServer.php    Dalvik/1.6.0 (Linux; U; Android 4.3; LT29i Build/9.2.A.1.205)
[2016-05-14 20:54:08] 
Array
(
    [op] => getnot
    [id] => 326
    [data] => 
)

[2016-05-14 20:54:08] 
Array
(
    [Android] => Array
        (
        )

)

[2016-05-14 22:21:51] 140.113.69.111  HTTP/1.1  POST  /Notification/mobile_notificationServer.php    Dalvik/1.6.0 (Linux; U; Android 4.3; LT29i Build/9.2.A.1.205)
[2016-05-14 22:21:51] 
Array
(
    [op] => getnot
    [id] => 326
    [data] => 
)

[2016-05-14 22:21:52] 
Array
(
    [Android] => Array
        (
        )

)

[2016-05-15 10:27:49] 220.135.141.83  HTTP/1.1  POST  /Notification/mobile_notificationServer.php    Dalvik/1.6.0 (Linux; U; Android 4.4.2; SM-G900F Build/KOT49H)
[2016-05-15 10:27:49] 
Array
(
    [op] => getnot
    [id] => 296
    [data] => 
)

[2016-05-15 10:27:49] 
Array
(
    [Android] => Array
        (
        )

)

[2016-05-15 18:13:24] 140.113.69.111  HTTP/1.1  POST  /Notification/mobile_notificationServer.php    Dalvik/1.6.0 (Linux; U; Android 4.3; LT29i Build/9.2.A.1.205)
[2016-05-15 18:13:24] 
Array
(
    [op] => getnot
    [id] => 326
    [data] => 
)

[2016-05-15 18:13:24] 
Array
(
    [Android] => Array
        (
        )

)

[2016-05-15 18:17:26] 114.26.30.167  HTTP/1.1  POST  /Notification/mobile_notificationServer.php    Dalvik/1.6.0 (Linux; U; Android 4.2.2; C6602 Build/10.3.1.A.2.67)
[2016-05-15 18:17:26] 
Array
(
    [op] => getnot
    [id] => 303
    [data] => 
)

[2016-05-15 18:17:26] 
Array
(
    [Android] => Array
        (
        )

)

[2016-05-15 18:18:28] 140.113.69.111  HTTP/1.1  POST  /Notification/mobile_notificationServer.php    Dalvik/1.6.0 (Linux; U; Android 4.3; LT29i Build/9.2.A.1.205)
[2016-05-15 18:18:28] 
Array
(
    [op] => getnot
    [id] => 326
    [data] => 
)

[2016-05-15 18:18:28] 
Array
(
    [Android] => Array
        (
        )

)

[2016-05-15 18:23:11] 140.113.69.111  HTTP/1.1  POST  /Notification/mobile_notificationServer.php    Dalvik/1.6.0 (Linux; U; Android 4.3; LT29i Build/9.2.A.1.205)
[2016-05-15 18:23:11] 
Array
(
    [op] => getnot
    [id] => 326
    [data] => 
)

[2016-05-15 18:23:11] 
Array
(
    [Android] => Array
        (
        )

)

[2016-05-15 18:23:56] 140.113.69.111  HTTP/1.1  POST  /Notification/mobile_notificationServer.php    Dalvik/1.6.0 (Linux; U; Android 4.3; LT29i Build/9.2.A.1.205)
[2016-05-15 18:23:56] 
Array
(
    [op] => getnot
    [id] => 326
    [data] => 
)

[2016-05-15 18:23:56] 
Array
(
    [Android] => Array
        (
        )

)

[2016-05-15 18:31:48] 140.113.69.111  HTTP/1.1  POST  /Notification/mobile_notificationServer.php    Dalvik/1.6.0 (Linux; U; Android 4.3; LT29i Build/9.2.A.1.205)
[2016-05-15 18:31:48] 
Array
(
    [op] => getnot
    [id] => 326
    [data] => 
)

[2016-05-15 18:31:48] 
Array
(
    [Android] => Array
        (
        )

)

[2016-05-15 18:34:21] 140.113.69.111  HTTP/1.1  POST  /Notification/mobile_notificationServer.php    Dalvik/1.6.0 (Linux; U; Android 4.3; LT29i Build/9.2.A.1.205)
[2016-05-15 18:34:21] 
Array
(
    [op] => getnot
    [id] => 326
    [data] => 
)

[2016-05-15 18:34:21] 
Array
(
    [Android] => Array
        (
        )

)

[2016-05-15 18:59:28] 220.136.194.128  HTTP/1.1  POST  /Notification/mobile_notificationServer.php    Dalvik/1.6.0 (Linux; U; Android 4.4.2; ASUS_T00J Build/KVT49L)
[2016-05-15 18:59:28] 
Array
(
    [op] => getnot
    [id] => 325
    [data] => 
)

[2016-05-15 18:59:28] 
Array
(
    [Android] => Array
        (
        )

)

[2016-05-15 19:00:54] 220.136.194.128  HTTP/1.1  POST  /Notification/mobile_notificationServer.php    Dalvik/1.6.0 (Linux; U; Android 4.4.2; ASUS_T00J Build/KVT49L)
[2016-05-15 19:00:54] 
Array
(
    [op] => getnot
    [id] => 325
    [data] => 
)

[2016-05-15 19:00:54] 
Array
(
    [Android] => Array
        (
        )

)

[2016-05-15 19:00:56] 220.136.194.128  HTTP/1.1  POST  /Notification/mobile_notificationServer.php    Dalvik/1.6.0 (Linux; U; Android 4.4.2; ASUS_T00J Build/KVT49L)
[2016-05-15 19:00:56] 
Array
(
    [op] => getnot
    [id] => 325
    [data] => 
)

[2016-05-15 19:00:56] 
Array
(
    [Android] => Array
        (
        )

)

[2016-05-15 19:26:00] 140.113.69.111  HTTP/1.1  POST  /Notification/mobile_notificationServer.php    Dalvik/1.6.0 (Linux; U; Android 4.3; LT29i Build/9.2.A.1.205)
[2016-05-15 19:26:00] 
Array
(
    [op] => getnot
    [id] => 326
    [data] => 
)

[2016-05-15 19:26:00] 
Array
(
    [Android] => Array
        (
        )

)

[2016-05-15 19:27:13] 140.113.69.111  HTTP/1.1  POST  /Notification/mobile_notificationServer.php    Dalvik/1.6.0 (Linux; U; Android 4.3; LT29i Build/9.2.A.1.205)
[2016-05-15 19:27:13] 
Array
(
    [op] => getnot
    [id] => 326
    [data] => 
)

[2016-05-15 19:27:13] 
Array
(
    [Android] => Array
        (
        )

)

[2016-05-15 19:28:40] 140.113.69.111  HTTP/1.1  POST  /Notification/mobile_notificationServer.php    Dalvik/1.6.0 (Linux; U; Android 4.3; LT29i Build/9.2.A.1.205)
[2016-05-15 19:28:40] 
Array
(
    [op] => getnot
    [id] => 326
    [data] => 
)

[2016-05-15 19:28:40] 
Array
(
    [Android] => Array
        (
        )

)

[2016-05-15 19:29:26] 140.113.69.111  HTTP/1.1  POST  /Notification/mobile_notificationServer.php    Dalvik/1.6.0 (Linux; U; Android 4.3; LT29i Build/9.2.A.1.205)
[2016-05-15 19:29:26] 
Array
(
    [op] => getnot
    [id] => 326
    [data] => 
)

[2016-05-15 19:29:26] 
Array
(
    [Android] => Array
        (
        )

)

[2016-05-15 19:53:05] 220.135.141.83  HTTP/1.1  POST  /Notification/mobile_notificationServer.php    Dalvik/1.6.0 (Linux; U; Android 4.4.2; SM-G900F Build/KOT49H)
[2016-05-15 19:53:05] 
Array
(
    [op] => getnot
    [id] => 296
    [data] => 
)

[2016-05-15 19:53:05] 
Array
(
    [Android] => Array
        (
        )

)

[2016-05-15 19:55:40] 140.113.69.111  HTTP/1.1  POST  /Notification/mobile_notificationServer.php    Dalvik/1.6.0 (Linux; U; Android 4.4.2; NoxW Build/KOT49H)
[2016-05-15 19:55:40] 
Array
(
    [op] => getnot
    [id] => 327
    [data] => 
)

[2016-05-15 19:55:40] 
Array
(
    [Android] => Array
        (
        )

)

[2016-05-15 20:00:59] 140.113.69.111  HTTP/1.1  POST  /Notification/mobile_notificationServer.php    Dalvik/1.6.0 (Linux; U; Android 4.3; LT29i Build/9.2.A.1.205)
[2016-05-15 20:00:59] 
Array
(
    [op] => getnot
    [id] => 326
    [data] => 
)

[2016-05-15 20:00:59] 
Array
(
    [Android] => Array
        (
        )

)

[2016-05-15 20:02:48] 140.113.69.111  HTTP/1.1  POST  /Notification/mobile_notificationServer.php    Dalvik/1.6.0 (Linux; U; Android 4.3; LT29i Build/9.2.A.1.205)
[2016-05-15 20:02:48] 
Array
(
    [op] => getnot
    [id] => 326
    [data] => 
)

[2016-05-15 20:02:48] 
Array
(
    [Android] => Array
        (
        )

)

[2016-05-15 20:06:10] 140.113.69.111  HTTP/1.1  POST  /Notification/mobile_notificationServer.php    Dalvik/1.6.0 (Linux; U; Android 4.4.2; NoxW Build/KOT49H)
[2016-05-15 20:06:10] 
Array
(
    [op] => getnot
    [id] => 328
    [data] => 
)

[2016-05-15 20:06:10] 
Array
(
    [Android] => Array
        (
        )

)

[2016-05-15 20:12:46] 140.113.69.111  HTTP/1.1  POST  /Notification/mobile_notificationServer.php    Dalvik/1.6.0 (Linux; U; Android 4.3; LT29i Build/9.2.A.1.205)
[2016-05-15 20:12:46] 
Array
(
    [op] => getnot
    [id] => 326
    [data] => 
)

[2016-05-15 20:12:46] 
Array
(
    [Android] => Array
        (
        )

)

[2016-05-15 20:13:40] 140.113.69.111  HTTP/1.1  POST  /Notification/mobile_notificationServer.php    Dalvik/1.6.0 (Linux; U; Android 4.3; LT29i Build/9.2.A.1.205)
[2016-05-15 20:13:40] 
Array
(
    [op] => getnot
    [id] => 326
    [data] => 
)

[2016-05-15 20:13:40] 
Array
(
    [Android] => Array
        (
        )

)

[2016-05-15 20:15:14] 140.113.69.111  HTTP/1.1  POST  /Notification/mobile_notificationServer.php    Dalvik/1.6.0 (Linux; U; Android 4.3; LT29i Build/9.2.A.1.205)
[2016-05-15 20:15:14] 
Array
(
    [op] => getnot
    [id] => 326
    [data] => 
)

[2016-05-15 20:15:14] 
Array
(
    [Android] => Array
        (
        )

)

[2016-05-15 20:16:31] 220.136.194.128  HTTP/1.1  POST  /Notification/mobile_notificationServer.php    Dalvik/1.6.0 (Linux; U; Android 4.4.2; ASUS_T00J Build/KVT49L)
[2016-05-15 20:16:31] 
Array
(
    [op] => getnot
    [id] => 325
    [data] => 
)

[2016-05-15 20:16:31] 
Array
(
    [Android] => Array
        (
        )

)

[2016-05-15 20:17:09] 140.113.69.111  HTTP/1.1  POST  /Notification/mobile_notificationServer.php    Dalvik/1.6.0 (Linux; U; Android 4.3; LT29i Build/9.2.A.1.205)
[2016-05-15 20:17:09] 
Array
(
    [op] => getnot
    [id] => 326
    [data] => 
)

[2016-05-15 20:17:09] 
Array
(
    [Android] => Array
        (
        )

)

[2016-05-15 20:23:13] 140.113.69.111  HTTP/1.1  POST  /Notification/mobile_notificationServer.php    Dalvik/1.6.0 (Linux; U; Android 4.4.2; NoxW Build/KOT49H)
[2016-05-15 20:23:13] 
Array
(
    [op] => getnot
    [id] => 329
    [data] => 
)

[2016-05-15 20:23:13] 
Array
(
    [Android] => Array
        (
        )

)

[2016-05-15 20:31:55] 140.113.69.111  HTTP/1.1  POST  /Notification/mobile_notificationServer.php    Dalvik/1.6.0 (Linux; U; Android 4.3; LT29i Build/9.2.A.1.205)
[2016-05-15 20:31:55] 
Array
(
    [op] => getnot
    [id] => 326
    [data] => 
)

[2016-05-15 20:31:55] 
Array
(
    [Android] => Array
        (
        )

)

[2016-05-15 20:34:20] 140.113.69.111  HTTP/1.1  POST  /Notification/mobile_notificationServer.php    Dalvik/1.6.0 (Linux; U; Android 4.3; LT29i Build/9.2.A.1.205)
[2016-05-15 20:34:20] 
Array
(
    [op] => getnot
    [id] => 326
    [data] => 
)

[2016-05-15 20:34:20] 
Array
(
    [Android] => Array
        (
        )

)

[2016-05-15 20:35:12] 140.113.69.111  HTTP/1.1  POST  /Notification/mobile_notificationServer.php    Dalvik/1.6.0 (Linux; U; Android 4.3; LT29i Build/9.2.A.1.205)
[2016-05-15 20:35:12] 
Array
(
    [op] => getnot
    [id] => 326
    [data] => 
)

[2016-05-15 20:35:12] 
Array
(
    [Android] => Array
        (
        )

)

[2016-05-15 20:40:58] 140.113.69.111  HTTP/1.1  POST  /Notification/mobile_notificationServer.php    Dalvik/1.6.0 (Linux; U; Android 4.3; LT29i Build/9.2.A.1.205)
[2016-05-15 20:40:58] 
Array
(
    [op] => getnot
    [id] => 326
    [data] => 
)

[2016-05-15 20:40:58] 
Array
(
    [Android] => Array
        (
        )

)

[2016-05-15 20:46:12] 140.113.69.111  HTTP/1.1  POST  /Notification/mobile_notificationServer.php    Dalvik/1.6.0 (Linux; U; Android 4.4.2; NoxW Build/KOT49H)
[2016-05-15 20:46:12] 
Array
(
    [op] => getnot
    [id] => 330
    [data] => 
)

[2016-05-15 20:46:12] 
Array
(
    [Android] => Array
        (
        )

)

[2016-05-15 20:53:30] 140.113.69.111  HTTP/1.1  POST  /Notification/mobile_notificationServer.php    Dalvik/1.6.0 (Linux; U; Android 4.3; LT29i Build/9.2.A.1.205)
[2016-05-15 20:53:30] 
Array
(
    [op] => getnot
    [id] => 326
    [data] => 
)

[2016-05-15 20:53:30] 
Array
(
    [Android] => Array
        (
        )

)

[2016-05-15 20:58:31] 140.113.69.111  HTTP/1.1  POST  /Notification/mobile_notificationServer.php    Dalvik/1.6.0 (Linux; U; Android 4.3; LT29i Build/9.2.A.1.205)
[2016-05-15 20:58:31] 
Array
(
    [op] => getnot
    [id] => 326
    [data] => 
)

[2016-05-15 20:58:31] 
Array
(
    [Android] => Array
        (
        )

)

[2016-05-15 21:43:27] 220.136.194.128  HTTP/1.1  POST  /Notification/mobile_notificationServer.php    Dalvik/1.6.0 (Linux; U; Android 4.4.2; ASUS_T00J Build/KVT49L)
[2016-05-15 21:43:27] 
Array
(
    [op] => getnot
    [id] => 325
    [data] => 
)

[2016-05-15 21:43:27] 
Array
(
    [Android] => Array
        (
        )

)

[2016-05-15 22:21:04] 140.113.69.111  HTTP/1.1  POST  /Notification/mobile_notificationServer.php    Dalvik/1.6.0 (Linux; U; Android 4.3; LT29i Build/9.2.A.1.205)
[2016-05-15 22:21:04] 
Array
(
    [op] => getnot
    [id] => 326
    [data] => 
)

[2016-05-15 22:21:04] 
Array
(
    [Android] => Array
        (
        )

)

[2016-05-15 22:27:49] 140.113.69.111  HTTP/1.1  POST  /Notification/mobile_notificationServer.php    Dalvik/1.6.0 (Linux; U; Android 4.4.2; NoxW Build/KOT49H)
[2016-05-15 22:27:49] 
Array
(
    [op] => getnot
    [id] => 331
    [data] => 
)

[2016-05-15 22:27:49] 
Array
(
    [Android] => Array
        (
        )

)

[2016-05-16 09:37:32] 220.136.194.128  HTTP/1.1  POST  /Notification/mobile_notificationServer.php    Dalvik/1.6.0 (Linux; U; Android 4.4.2; ASUS_T00J Build/KVT49L)
[2016-05-16 09:37:32] 
Array
(
    [op] => getnot
    [id] => 325
    [data] => 
)

[2016-05-16 09:37:32] 
Array
(
    [Android] => Array
        (
        )

)

[2016-05-16 10:16:09] 140.113.69.111  HTTP/1.1  POST  /Notification/mobile_notificationServer.php    Dalvik/1.6.0 (Linux; U; Android 4.3; LT29i Build/9.2.A.1.205)
[2016-05-16 10:16:09] 
Array
(
    [op] => getnot
    [id] => 326
    [data] => 
)

[2016-05-16 10:16:09] 
Array
(
    [Android] => Array
        (
        )

)

[2016-05-16 11:49:33] 140.113.69.111  HTTP/1.1  POST  /Notification/mobile_notificationServer.php    Dalvik/1.6.0 (Linux; U; Android 4.3; LT29i Build/9.2.A.1.205)
[2016-05-16 11:49:33] 
Array
(
    [op] => getnot
    [id] => 326
    [data] => 
)

[2016-05-16 11:49:33] 
Array
(
    [Android] => Array
        (
        )

)

[2016-05-16 19:29:21] 140.113.69.111  HTTP/1.1  POST  /Notification/mobile_notificationServer.php    Dalvik/1.6.0 (Linux; U; Android 4.4.2; NoxW Build/KOT49H)
[2016-05-16 19:29:21] 
Array
(
    [op] => getnot
    [id] => 331
    [data] => 
)

[2016-05-16 19:29:21] 
Array
(
    [Android] => Array
        (
        )

)

[2016-05-16 22:55:04] 140.113.69.111  HTTP/1.1  POST  /Notification/mobile_notificationServer.php    Dalvik/1.6.0 (Linux; U; Android 4.3; LT29i Build/9.2.A.1.205)
[2016-05-16 22:55:04] 
Array
(
    [op] => getnot
    [id] => 326
    [data] => 
)

[2016-05-16 22:55:04] 
Array
(
    [Android] => Array
        (
        )

)

[2016-05-17 08:31:04] 140.113.69.111  HTTP/1.1  POST  /Notification/mobile_notificationServer.php    Dalvik/1.6.0 (Linux; U; Android 4.3; LT29i Build/9.2.A.1.205)
[2016-05-17 08:31:04] 
Array
(
    [op] => getnot
    [id] => 326
    [data] => 
)

[2016-05-17 08:31:04] 
Array
(
    [Android] => Array
        (
        )

)

[2016-05-17 08:31:29] 140.113.69.111  HTTP/1.1  POST  /Notification/mobile_notificationServer.php    Dalvik/1.6.0 (Linux; U; Android 4.4.2; NoxW Build/KOT49H)
[2016-05-17 08:31:29] 
Array
(
    [op] => getnot
    [id] => 331
    [data] => 
)

[2016-05-17 08:31:29] 
Array
(
    [Android] => Array
        (
        )

)

[2016-05-17 08:32:02] 140.113.69.111  HTTP/1.1  POST  /Notification/mobile_notificationServer.php    Dalvik/1.6.0 (Linux; U; Android 4.3; LT29i Build/9.2.A.1.205)
[2016-05-17 08:32:02] 
Array
(
    [op] => getnot
    [id] => 326
    [data] => 
)

[2016-05-17 08:32:02] 
Array
(
    [Android] => Array
        (
        )

)

[2016-05-17 08:32:34] 140.113.69.111  HTTP/1.1  POST  /Notification/mobile_notificationServer.php    Dalvik/1.6.0 (Linux; U; Android 4.3; LT29i Build/9.2.A.1.205)
[2016-05-17 08:32:34] 
Array
(
    [op] => getnot
    [id] => 326
    [data] => 
)

[2016-05-17 08:32:34] 
Array
(
    [Android] => Array
        (
        )

)

[2016-05-17 15:24:48] 140.113.69.111  HTTP/1.1  POST  /Notification/mobile_notificationServer.php    Dalvik/1.6.0 (Linux; U; Android 4.3; LT29i Build/9.2.A.1.205)
[2016-05-17 15:24:48] 
Array
(
    [op] => getnot
    [id] => 326
    [data] => 
)

[2016-05-17 15:24:48] 
Array
(
    [Android] => Array
        (
        )

)

[2016-05-17 15:31:09] 140.113.69.111  HTTP/1.1  POST  /Notification/mobile_notificationServer.php    Dalvik/1.6.0 (Linux; U; Android 4.3; LT29i Build/9.2.A.1.205)
[2016-05-17 15:31:09] 
Array
(
    [op] => getnot
    [id] => 326
    [data] => 
)

[2016-05-17 15:31:09] 
Array
(
    [Android] => Array
        (
        )

)

[2016-05-17 18:47:49] 140.113.69.111  HTTP/1.1  POST  /Notification/mobile_notificationServer.php    Dalvik/1.6.0 (Linux; U; Android 4.3; LT29i Build/9.2.A.1.205)
[2016-05-17 18:47:49] 
Array
(
    [op] => getnot
    [id] => 326
    [data] => 
)

[2016-05-17 18:47:49] 
Array
(
    [Android] => Array
        (
        )

)

[2016-05-17 19:34:34] 140.113.69.111  HTTP/1.1  POST  /Notification/mobile_notificationServer.php    Dalvik/1.6.0 (Linux; U; Android 4.3; LT29i Build/9.2.A.1.205)
[2016-05-17 19:34:34] 
Array
(
    [op] => getnot
    [id] => 326
    [data] => 
)

[2016-05-17 19:34:34] 
Array
(
    [Android] => Array
        (
        )

)

[2016-05-17 19:37:39] 140.113.69.111  HTTP/1.1  POST  /Notification/mobile_notificationServer.php    Dalvik/1.6.0 (Linux; U; Android 4.3; LT29i Build/9.2.A.1.205)
[2016-05-17 19:37:39] 
Array
(
    [op] => getnot
    [id] => 326
    [data] => 
)

[2016-05-17 19:37:39] 
Array
(
    [Android] => Array
        (
        )

)

[2016-05-31 12:57:00] 220.136.199.57  HTTP/1.1  POST  /Notification/mobile_notificationServer.php    Dalvik/1.6.0 (Linux; U; Android 4.4.2; ASUS_T00J Build/KVT49L)
[2016-05-31 12:57:00] 
Array
(
    [op] => getnot
    [id] => 325
    [data] => 
)

[2016-05-31 12:57:00] 
Array
(
    [Android] => Array
        (
        )

)

[2016-06-13 19:47:35] 118.160.92.22  HTTP/1.1  POST  /Notification/mobile_notificationServer.php    Dalvik/1.6.0 (Linux; U; Android 4.2.2; C6602 Build/10.3.1.A.2.67)
[2016-06-13 19:47:35] 
Array
(
    [op] => getnot
    [id] => 303
    [data] => 
)

[2016-06-13 19:47:35] 
Array
(
    [Android] => Array
        (
        )

)

[2016-06-13 19:47:37] 118.160.92.22  HTTP/1.1  POST  /Notification/mobile_notificationServer.php    Dalvik/1.6.0 (Linux; U; Android 4.2.2; C6602 Build/10.3.1.A.2.67)
[2016-06-13 19:47:37] 
Array
(
    [op] => getnot
    [id] => 303
    [data] => 
)

[2016-06-13 19:47:37] 
Array
(
    [Android] => Array
        (
        )

)

[2016-06-14 13:36:42] 223.136.187.114  HTTP/1.1  POST  /Notification/mobile_notificationServer.php    Dalvik/1.6.0 (Linux; U; Android 4.2.2; C6602 Build/10.3.1.A.2.67)
[2016-06-14 13:36:42] 
Array
(
    [op] => getnot
    [id] => 303
    [data] => 
)

[2016-06-14 13:36:42] 
Array
(
    [Android] => Array
        (
        )

)

[2016-06-14 13:40:44] 223.136.187.114  HTTP/1.1  POST  /Notification/mobile_notificationServer.php    Dalvik/1.6.0 (Linux; U; Android 4.2.2; C6602 Build/10.3.1.A.2.67)
[2016-06-14 13:40:44] 
Array
(
    [op] => getnot
    [id] => 332
    [data] => 
)

[2016-06-14 13:40:44] 
Array
(
    [Android] => Array
        (
        )

)

[2016-06-14 13:40:54] 223.136.187.114  HTTP/1.1  POST  /Notification/mobile_notificationServer.php    Dalvik/1.6.0 (Linux; U; Android 4.2.2; C6602 Build/10.3.1.A.2.67)
[2016-06-14 13:40:54] 
Array
(
    [op] => getnot
    [id] => 332
    [data] => 
)

[2016-06-14 13:40:54] 
Array
(
    [Android] => Array
        (
        )

)

